{
  "configVersion": 2,
  "packages": [
    {
      "name": "admob_flutter",
      "rootUri": "file:///C:/src/flutter/flutter/.pub-cache/hosted/pub.dartlang.org/admob_flutter-1.0.1",
      "packageUri": "lib/",
      "languageVersion": "2.7"
    },
    {
      "name": "archive",
      "rootUri": "file:///C:/src/flutter/flutter/.pub-cache/hosted/pub.dartlang.org/archive-2.0.13",
      "packageUri": "lib/",
      "languageVersion": "2.0"
    },
    {
      "name": "args",
      "rootUri": "file:///C:/src/flutter/flutter/.pub-cache/hosted/pub.dartlang.org/args-1.6.0",
      "packageUri": "lib/",
      "languageVersion": "2.3"
    },
    {
      "name": "asn1lib",
      "rootUri": "file:///C:/src/flutter/flutter/.pub-cache/hosted/pub.dartlang.org/asn1lib-0.8.1",
      "packageUri": "lib/",
      "languageVersion": "2.2"
    },
    {
      "name": "async",
      "rootUri": "file:///C:/src/flutter/flutter/.pub-cache/hosted/pub.dartlang.org/async-2.8.2",
      "packageUri": "lib/",
      "languageVersion": "2.12"
    },
    {
      "name": "beacon_broadcast",
      "rootUri": "file:///C:/src/flutter/flutter/.pub-cache/hosted/pub.dartlang.org/beacon_broadcast-0.2.3",
      "packageUri": "lib/",
      "languageVersion": "2.1"
    },
    {
      "name": "bubble_overlay",
      "rootUri": "file:///C:/src/flutter/flutter/.pub-cache/hosted/pub.dartlang.org/bubble_overlay-0.2.0",
      "packageUri": "lib/",
      "languageVersion": "2.12"
    },
    {
      "name": "characters",
      "rootUri": "file:///C:/src/flutter/flutter/.pub-cache/hosted/pub.dartlang.org/characters-1.1.0",
      "packageUri": "lib/",
      "languageVersion": "2.12"
    },
    {
      "name": "charcode",
      "rootUri": "file:///C:/src/flutter/flutter/.pub-cache/hosted/pub.dartlang.org/charcode-1.3.1",
      "packageUri": "lib/",
      "languageVersion": "2.12"
    },
    {
      "name": "clipboard_manager",
      "rootUri": "file:///C:/src/flutter/flutter/.pub-cache/hosted/pub.dartlang.org/clipboard_manager-0.0.4",
      "packageUri": "lib/",
      "languageVersion": "2.0"
    },
    {
      "name": "clock",
      "rootUri": "file:///C:/src/flutter/flutter/.pub-cache/hosted/pub.dartlang.org/clock-1.1.0",
      "packageUri": "lib/",
      "languageVersion": "2.12"
    },
    {
      "name": "collection",
      "rootUri": "file:///C:/src/flutter/flutter/.pub-cache/hosted/pub.dartlang.org/collection-1.15.0",
      "packageUri": "lib/",
      "languageVersion": "2.12"
    },
    {
      "name": "connectivity",
      "rootUri": "file:///C:/src/flutter/flutter/.pub-cache/hosted/pub.dartlang.org/connectivity-2.0.2",
      "packageUri": "lib/",
      "languageVersion": "2.1"
    },
    {
      "name": "connectivity_for_web",
      "rootUri": "file:///C:/src/flutter/flutter/.pub-cache/hosted/pub.dartlang.org/connectivity_for_web-0.3.1+4",
      "packageUri": "lib/",
      "languageVersion": "2.6"
    },
    {
      "name": "connectivity_macos",
      "rootUri": "file:///C:/src/flutter/flutter/.pub-cache/hosted/pub.dartlang.org/connectivity_macos-0.1.0+7",
      "packageUri": "lib/",
      "languageVersion": "2.1"
    },
    {
      "name": "connectivity_platform_interface",
      "rootUri": "file:///C:/src/flutter/flutter/.pub-cache/hosted/pub.dartlang.org/connectivity_platform_interface-1.0.6",
      "packageUri": "lib/",
      "languageVersion": "2.1"
    },
    {
      "name": "convert",
      "rootUri": "file:///C:/src/flutter/flutter/.pub-cache/hosted/pub.dartlang.org/convert-2.1.1",
      "packageUri": "lib/",
      "languageVersion": "1.17"
    },
    {
      "name": "cpfcnpj",
      "rootUri": "file:///C:/src/flutter/flutter/.pub-cache/hosted/pub.dartlang.org/cpfcnpj-1.0.3",
      "packageUri": "lib/",
      "languageVersion": "2.5"
    },
    {
      "name": "crypto",
      "rootUri": "file:///C:/src/flutter/flutter/.pub-cache/hosted/pub.dartlang.org/crypto-2.1.5",
      "packageUri": "lib/",
      "languageVersion": "2.3"
    },
    {
      "name": "cupertino_icons",
      "rootUri": "file:///C:/src/flutter/flutter/.pub-cache/hosted/pub.dartlang.org/cupertino_icons-1.0.4",
      "packageUri": "lib/",
      "languageVersion": "2.12"
    },
    {
      "name": "dart_des",
      "rootUri": "file:///C:/src/flutter/flutter/.pub-cache/hosted/pub.dartlang.org/dart_des-1.0.0",
      "packageUri": "lib/",
      "languageVersion": "2.12"
    },
    {
      "name": "device_info",
      "rootUri": "file:///C:/src/flutter/flutter/.pub-cache/hosted/pub.dartlang.org/device_info-2.0.3",
      "packageUri": "lib/",
      "languageVersion": "2.12"
    },
    {
      "name": "device_info_platform_interface",
      "rootUri": "file:///C:/src/flutter/flutter/.pub-cache/hosted/pub.dartlang.org/device_info_platform_interface-2.0.0",
      "packageUri": "lib/",
      "languageVersion": "2.12"
    },
    {
      "name": "diacritic",
      "rootUri": "file:///C:/src/flutter/flutter/.pub-cache/hosted/pub.dartlang.org/diacritic-0.1.3",
      "packageUri": "lib/",
      "languageVersion": "2.12"
    },
    {
      "name": "email_validator",
      "rootUri": "file:///C:/src/flutter/flutter/.pub-cache/hosted/pub.dartlang.org/email_validator-2.0.1",
      "packageUri": "lib/",
      "languageVersion": "2.12"
    },
    {
      "name": "encrypt",
      "rootUri": "file:///C:/src/flutter/flutter/.pub-cache/hosted/pub.dartlang.org/encrypt-4.1.0",
      "packageUri": "lib/",
      "languageVersion": "2.2"
    },
    {
      "name": "expandable",
      "rootUri": "file:///C:/src/flutter/flutter/.pub-cache/hosted/pub.dartlang.org/expandable-5.0.1",
      "packageUri": "lib/",
      "languageVersion": "2.12"
    },
    {
      "name": "fading_edge_scrollview",
      "rootUri": "file:///C:/src/flutter/flutter/.pub-cache/hosted/pub.dartlang.org/fading_edge_scrollview-2.0.1",
      "packageUri": "lib/",
      "languageVersion": "2.12"
    },
    {
      "name": "ffi",
      "rootUri": "file:///C:/src/flutter/flutter/.pub-cache/hosted/pub.dartlang.org/ffi-1.1.2",
      "packageUri": "lib/",
      "languageVersion": "2.12"
    },
    {
      "name": "file",
      "rootUri": "file:///C:/src/flutter/flutter/.pub-cache/hosted/pub.dartlang.org/file-6.1.2",
      "packageUri": "lib/",
      "languageVersion": "2.12"
    },
    {
      "name": "firebase",
      "rootUri": "file:///C:/src/flutter/flutter/.pub-cache/hosted/pub.dartlang.org/firebase-7.3.3",
      "packageUri": "lib/",
      "languageVersion": "2.7"
    },
    {
      "name": "firebase_analytics",
      "rootUri": "file:///C:/src/flutter/flutter/.pub-cache/hosted/pub.dartlang.org/firebase_analytics-6.3.0",
      "packageUri": "lib/",
      "languageVersion": "2.1"
    },
    {
      "name": "firebase_analytics_platform_interface",
      "rootUri": "file:///C:/src/flutter/flutter/.pub-cache/hosted/pub.dartlang.org/firebase_analytics_platform_interface-1.1.0",
      "packageUri": "lib/",
      "languageVersion": "2.12"
    },
    {
      "name": "firebase_analytics_web",
      "rootUri": "file:///C:/src/flutter/flutter/.pub-cache/hosted/pub.dartlang.org/firebase_analytics_web-0.1.1",
      "packageUri": "lib/",
      "languageVersion": "2.7"
    },
    {
      "name": "firebase_auth",
      "rootUri": "file:///C:/src/flutter/flutter/.pub-cache/hosted/pub.dartlang.org/firebase_auth-0.18.4+1",
      "packageUri": "lib/",
      "languageVersion": "2.0"
    },
    {
      "name": "firebase_auth_platform_interface",
      "rootUri": "file:///C:/src/flutter/flutter/.pub-cache/hosted/pub.dartlang.org/firebase_auth_platform_interface-2.1.4",
      "packageUri": "lib/",
      "languageVersion": "2.0"
    },
    {
      "name": "firebase_auth_web",
      "rootUri": "file:///C:/src/flutter/flutter/.pub-cache/hosted/pub.dartlang.org/firebase_auth_web-0.3.2+3",
      "packageUri": "lib/",
      "languageVersion": "2.0"
    },
    {
      "name": "firebase_core",
      "rootUri": "file:///C:/src/flutter/flutter/.pub-cache/hosted/pub.dartlang.org/firebase_core-0.5.3",
      "packageUri": "lib/",
      "languageVersion": "2.1"
    },
    {
      "name": "firebase_core_platform_interface",
      "rootUri": "file:///C:/src/flutter/flutter/.pub-cache/hosted/pub.dartlang.org/firebase_core_platform_interface-2.1.0",
      "packageUri": "lib/",
      "languageVersion": "2.1"
    },
    {
      "name": "firebase_core_web",
      "rootUri": "file:///C:/src/flutter/flutter/.pub-cache/hosted/pub.dartlang.org/firebase_core_web-0.2.1+1",
      "packageUri": "lib/",
      "languageVersion": "2.1"
    },
    {
      "name": "firebase_messaging",
      "rootUri": "file:///C:/src/flutter/flutter/.pub-cache/hosted/pub.dartlang.org/firebase_messaging-7.0.3",
      "packageUri": "lib/",
      "languageVersion": "2.0"
    },
    {
      "name": "firebase_storage",
      "rootUri": "file:///C:/src/flutter/flutter/.pub-cache/hosted/pub.dartlang.org/firebase_storage-5.2.0",
      "packageUri": "lib/",
      "languageVersion": "2.0"
    },
    {
      "name": "firebase_storage_platform_interface",
      "rootUri": "file:///C:/src/flutter/flutter/.pub-cache/hosted/pub.dartlang.org/firebase_storage_platform_interface-1.0.2",
      "packageUri": "lib/",
      "languageVersion": "2.0"
    },
    {
      "name": "firebase_storage_web",
      "rootUri": "file:///C:/src/flutter/flutter/.pub-cache/hosted/pub.dartlang.org/firebase_storage_web-0.1.1+1",
      "packageUri": "lib/",
      "languageVersion": "2.7"
    },
    {
      "name": "flutter",
      "rootUri": "file:///C:/src/flutter/flutter/packages/flutter",
      "packageUri": "lib/",
      "languageVersion": "2.12"
    },
    {
      "name": "flutter_beacon",
      "rootUri": "file:///C:/src/flutter/flutter/.pub-cache/hosted/pub.dartlang.org/flutter_beacon-0.2.4",
      "packageUri": "lib/",
      "languageVersion": "2.0"
    },
    {
      "name": "flutter_boom_menu",
      "rootUri": "file:///C:/src/flutter/flutter/.pub-cache/hosted/pub.dartlang.org/flutter_boom_menu-1.0.2",
      "packageUri": "lib/",
      "languageVersion": "2.1"
    },
    {
      "name": "flutter_datetime_picker",
      "rootUri": "file:///C:/src/flutter/flutter/.pub-cache/hosted/pub.dartlang.org/flutter_datetime_picker-1.5.1",
      "packageUri": "lib/",
      "languageVersion": "2.12"
    },
    {
      "name": "flutter_inappwebview",
      "rootUri": "file:///C:/src/flutter/flutter/.pub-cache/hosted/pub.dartlang.org/flutter_inappwebview-5.3.2",
      "packageUri": "lib/",
      "languageVersion": "2.12"
    },
    {
      "name": "flutter_json_widget",
      "rootUri": "file:///C:/src/flutter/flutter/.pub-cache/hosted/pub.dartlang.org/flutter_json_widget-1.0.2",
      "packageUri": "lib/",
      "languageVersion": "2.1"
    },
    {
      "name": "flutter_keyboard_visibility",
      "rootUri": "file:///C:/src/flutter/flutter/.pub-cache/hosted/pub.dartlang.org/flutter_keyboard_visibility-4.0.6",
      "packageUri": "lib/",
      "languageVersion": "2.1"
    },
    {
      "name": "flutter_keyboard_visibility_platform_interface",
      "rootUri": "file:///C:/src/flutter/flutter/.pub-cache/hosted/pub.dartlang.org/flutter_keyboard_visibility_platform_interface-1.0.1",
      "packageUri": "lib/",
      "languageVersion": "2.1"
    },
    {
      "name": "flutter_keyboard_visibility_web",
      "rootUri": "file:///C:/src/flutter/flutter/.pub-cache/hosted/pub.dartlang.org/flutter_keyboard_visibility_web-1.0.1",
      "packageUri": "lib/",
      "languageVersion": "2.1"
    },
    {
      "name": "flutter_linkify",
      "rootUri": "file:///C:/src/flutter/flutter/.pub-cache/hosted/pub.dartlang.org/flutter_linkify-5.0.2",
      "packageUri": "lib/",
      "languageVersion": "2.12"
    },
    {
      "name": "flutter_native_config",
      "rootUri": "file:///C:/src/flutter/flutter/.pub-cache/hosted/pub.dartlang.org/flutter_native_config-1.0.0",
      "packageUri": "lib/",
      "languageVersion": "2.0"
    },
    {
      "name": "flutter_plugin_android_lifecycle",
      "rootUri": "file:///C:/src/flutter/flutter/.pub-cache/hosted/pub.dartlang.org/flutter_plugin_android_lifecycle-2.0.4",
      "packageUri": "lib/",
      "languageVersion": "2.12"
    },
    {
      "name": "flutter_polyline_points",
      "rootUri": "file:///C:/src/flutter/flutter/.pub-cache/hosted/pub.dartlang.org/flutter_polyline_points-0.2.4",
      "packageUri": "lib/",
      "languageVersion": "2.1"
    },
    {
      "name": "flutter_rating_bar",
      "rootUri": "file:///C:/src/flutter/flutter/.pub-cache/hosted/pub.dartlang.org/flutter_rating_bar-4.0.0",
      "packageUri": "lib/",
      "languageVersion": "2.12"
    },
    {
      "name": "flutter_speech",
      "rootUri": "file:///C:/src/flutter/flutter/.pub-cache/hosted/pub.dartlang.org/flutter_speech-1.1.0",
      "packageUri": "lib/",
      "languageVersion": "2.1"
    },
    {
      "name": "flutter_svg",
      "rootUri": "file:///C:/src/flutter/flutter/.pub-cache/hosted/pub.dartlang.org/flutter_svg-0.19.3",
      "packageUri": "lib/",
      "languageVersion": "2.2"
    },
    {
      "name": "flutter_tts",
      "rootUri": "file:///C:/src/flutter/flutter/.pub-cache/hosted/pub.dartlang.org/flutter_tts-2.1.0",
      "packageUri": "lib/",
      "languageVersion": "2.1"
    },
    {
      "name": "flutter_typeahead",
      "rootUri": "file:///C:/src/flutter/flutter/.pub-cache/hosted/pub.dartlang.org/flutter_typeahead-2.0.0",
      "packageUri": "lib/",
      "languageVersion": "1.19"
    },
    {
      "name": "flutter_web_plugins",
      "rootUri": "file:///C:/src/flutter/flutter/packages/flutter_web_plugins",
      "packageUri": "lib/",
      "languageVersion": "2.12"
    },
    {
      "name": "google_fonts",
      "rootUri": "file:///C:/src/flutter/flutter/.pub-cache/hosted/pub.dartlang.org/google_fonts-1.1.2",
      "packageUri": "lib/",
      "languageVersion": "2.3"
    },
    {
      "name": "google_maps_flutter",
      "rootUri": "file:///C:/src/flutter/flutter/.pub-cache/hosted/pub.dartlang.org/google_maps_flutter-2.0.10",
      "packageUri": "lib/",
      "languageVersion": "2.14"
    },
    {
      "name": "google_maps_flutter_platform_interface",
      "rootUri": "file:///C:/src/flutter/flutter/.pub-cache/hosted/pub.dartlang.org/google_maps_flutter_platform_interface-2.0.0",
      "packageUri": "lib/",
      "languageVersion": "2.12"
    },
    {
      "name": "google_maps_utils",
      "rootUri": "file:///C:/src/flutter/flutter/.pub-cache/hosted/pub.dartlang.org/google_maps_utils-1.4.0+1",
      "packageUri": "lib/",
      "languageVersion": "2.12"
    },
    {
      "name": "google_sign_in",
      "rootUri": "file:///C:/src/flutter/flutter/.pub-cache/hosted/pub.dartlang.org/google_sign_in-4.5.9",
      "packageUri": "lib/",
      "languageVersion": "2.1"
    },
    {
      "name": "google_sign_in_platform_interface",
      "rootUri": "file:///C:/src/flutter/flutter/.pub-cache/hosted/pub.dartlang.org/google_sign_in_platform_interface-1.1.2",
      "packageUri": "lib/",
      "languageVersion": "2.1"
    },
    {
      "name": "google_sign_in_web",
      "rootUri": "file:///C:/src/flutter/flutter/.pub-cache/hosted/pub.dartlang.org/google_sign_in_web-0.9.2",
      "packageUri": "lib/",
      "languageVersion": "2.6"
    },
    {
      "name": "http",
      "rootUri": "file:///C:/src/flutter/flutter/.pub-cache/hosted/pub.dartlang.org/http-0.12.2",
      "packageUri": "lib/",
      "languageVersion": "2.4"
    },
    {
      "name": "http_parser",
      "rootUri": "file:///C:/src/flutter/flutter/.pub-cache/hosted/pub.dartlang.org/http_parser-3.1.4",
      "packageUri": "lib/",
      "languageVersion": "2.3"
    },
    {
      "name": "image",
      "rootUri": "file:///C:/src/flutter/flutter/.pub-cache/hosted/pub.dartlang.org/image-2.1.19",
      "packageUri": "lib/",
      "languageVersion": "2.0"
    },
    {
      "name": "image_gallery_saver",
      "rootUri": "file:///C:/src/flutter/flutter/.pub-cache/hosted/pub.dartlang.org/image_gallery_saver-1.7.1",
      "packageUri": "lib/",
      "languageVersion": "2.12"
    },
    {
      "name": "image_picker",
      "rootUri": "file:///C:/src/flutter/flutter/.pub-cache/hosted/pub.dartlang.org/image_picker-0.5.4+3",
      "packageUri": "lib/",
      "languageVersion": "2.0"
    },
    {
      "name": "image_picker_platform_interface",
      "rootUri": "file:///C:/src/flutter/flutter/.pub-cache/hosted/pub.dartlang.org/image_picker_platform_interface-1.1.6",
      "packageUri": "lib/",
      "languageVersion": "2.5"
    },
    {
      "name": "imei_plugin",
      "rootUri": "file:///C:/src/flutter/flutter/.pub-cache/hosted/pub.dartlang.org/imei_plugin-1.2.0",
      "packageUri": "lib/",
      "languageVersion": "2.7"
    },
    {
      "name": "in_app_review",
      "rootUri": "file:///C:/src/flutter/flutter/.pub-cache/hosted/pub.dartlang.org/in_app_review-1.0.4",
      "packageUri": "lib/",
      "languageVersion": "2.1"
    },
    {
      "name": "in_app_review_platform_interface",
      "rootUri": "file:///C:/src/flutter/flutter/.pub-cache/hosted/pub.dartlang.org/in_app_review_platform_interface-1.0.5",
      "packageUri": "lib/",
      "languageVersion": "2.1"
    },
    {
      "name": "instant",
      "rootUri": "file:///C:/src/flutter/flutter/.pub-cache/hosted/pub.dartlang.org/instant-0.4.1",
      "packageUri": "lib/",
      "languageVersion": "2.12"
    },
    {
      "name": "intl",
      "rootUri": "file:///C:/src/flutter/flutter/.pub-cache/hosted/pub.dartlang.org/intl-0.16.1",
      "packageUri": "lib/",
      "languageVersion": "2.5"
    },
    {
      "name": "js",
      "rootUri": "file:///C:/src/flutter/flutter/.pub-cache/hosted/pub.dartlang.org/js-0.6.3",
      "packageUri": "lib/",
      "languageVersion": "2.12"
    },
    {
      "name": "linkify",
      "rootUri": "file:///C:/src/flutter/flutter/.pub-cache/hosted/pub.dartlang.org/linkify-4.1.0",
      "packageUri": "lib/",
      "languageVersion": "2.12"
    },
    {
      "name": "location",
      "rootUri": "file:///C:/src/flutter/flutter/.pub-cache/hosted/pub.dartlang.org/location-3.2.4",
      "packageUri": "lib/",
      "languageVersion": "2.1"
    },
    {
      "name": "location_platform_interface",
      "rootUri": "file:///C:/src/flutter/flutter/.pub-cache/hosted/pub.dartlang.org/location_platform_interface-1.1.0",
      "packageUri": "lib/",
      "languageVersion": "2.4"
    },
    {
      "name": "location_web",
      "rootUri": "file:///C:/src/flutter/flutter/.pub-cache/hosted/pub.dartlang.org/location_web-1.0.1",
      "packageUri": "lib/",
      "languageVersion": "2.1"
    },
    {
      "name": "marquee",
      "rootUri": "file:///C:/src/flutter/flutter/.pub-cache/hosted/pub.dartlang.org/marquee-2.2.0",
      "packageUri": "lib/",
      "languageVersion": "2.12"
    },
    {
      "name": "mask_text_input_formatter",
      "rootUri": "file:///C:/src/flutter/flutter/.pub-cache/hosted/pub.dartlang.org/mask_text_input_formatter-1.2.1",
      "packageUri": "lib/",
      "languageVersion": "2.6"
    },
    {
      "name": "matcher",
      "rootUri": "file:///C:/src/flutter/flutter/.pub-cache/hosted/pub.dartlang.org/matcher-0.12.11",
      "packageUri": "lib/",
      "languageVersion": "2.12"
    },
    {
      "name": "meta",
      "rootUri": "file:///C:/src/flutter/flutter/.pub-cache/hosted/pub.dartlang.org/meta-1.7.0",
      "packageUri": "lib/",
      "languageVersion": "2.12"
    },
    {
      "name": "mime",
      "rootUri": "file:///C:/src/flutter/flutter/.pub-cache/hosted/pub.dartlang.org/mime-1.0.1",
      "packageUri": "lib/",
      "languageVersion": "2.12"
    },
    {
      "name": "outline_material_icons",
      "rootUri": "file:///C:/src/flutter/flutter/.pub-cache/hosted/pub.dartlang.org/outline_material_icons-0.1.1",
      "packageUri": "lib/",
      "languageVersion": "2.0"
    },
    {
      "name": "package_info",
      "rootUri": "file:///C:/src/flutter/flutter/.pub-cache/hosted/pub.dartlang.org/package_info-2.0.2",
      "packageUri": "lib/",
      "languageVersion": "2.12"
    },
    {
      "name": "path",
      "rootUri": "file:///C:/src/flutter/flutter/.pub-cache/hosted/pub.dartlang.org/path-1.8.0",
      "packageUri": "lib/",
      "languageVersion": "2.12"
    },
    {
      "name": "path_drawing",
      "rootUri": "file:///C:/src/flutter/flutter/.pub-cache/hosted/pub.dartlang.org/path_drawing-0.4.1+1",
      "packageUri": "lib/",
      "languageVersion": "1.19"
    },
    {
      "name": "path_parsing",
      "rootUri": "file:///C:/src/flutter/flutter/.pub-cache/hosted/pub.dartlang.org/path_parsing-0.1.4",
      "packageUri": "lib/",
      "languageVersion": "1.19"
    },
    {
      "name": "path_provider",
      "rootUri": "file:///C:/src/flutter/flutter/.pub-cache/hosted/pub.dartlang.org/path_provider-2.0.6",
      "packageUri": "lib/",
      "languageVersion": "2.14"
    },
    {
      "name": "path_provider_linux",
      "rootUri": "file:///C:/src/flutter/flutter/.pub-cache/hosted/pub.dartlang.org/path_provider_linux-2.1.0",
      "packageUri": "lib/",
      "languageVersion": "2.12"
    },
    {
      "name": "path_provider_macos",
      "rootUri": "file:///C:/src/flutter/flutter/.pub-cache/hosted/pub.dartlang.org/path_provider_macos-2.0.2",
      "packageUri": "lib/",
      "languageVersion": "2.12"
    },
    {
      "name": "path_provider_platform_interface",
      "rootUri": "file:///C:/src/flutter/flutter/.pub-cache/hosted/pub.dartlang.org/path_provider_platform_interface-2.0.0",
      "packageUri": "lib/",
      "languageVersion": "2.12"
    },
    {
      "name": "path_provider_windows",
      "rootUri": "file:///C:/src/flutter/flutter/.pub-cache/hosted/pub.dartlang.org/path_provider_windows-2.0.3",
      "packageUri": "lib/",
      "languageVersion": "2.12"
    },
    {
      "name": "pedantic",
      "rootUri": "file:///C:/src/flutter/flutter/.pub-cache/hosted/pub.dartlang.org/pedantic-1.11.1",
      "packageUri": "lib/",
      "languageVersion": "2.12"
    },
    {
      "name": "permission_handler",
      "rootUri": "file:///C:/src/flutter/flutter/.pub-cache/hosted/pub.dartlang.org/permission_handler-5.1.0+2",
      "packageUri": "lib/",
      "languageVersion": "2.7"
    },
    {
      "name": "permission_handler_platform_interface",
      "rootUri": "file:///C:/src/flutter/flutter/.pub-cache/hosted/pub.dartlang.org/permission_handler_platform_interface-2.0.2",
      "packageUri": "lib/",
      "languageVersion": "2.6"
    },
    {
      "name": "petitparser",
      "rootUri": "file:///C:/src/flutter/flutter/.pub-cache/hosted/pub.dartlang.org/petitparser-3.1.0",
      "packageUri": "lib/",
      "languageVersion": "2.7"
    },
    {
      "name": "platform",
      "rootUri": "file:///C:/src/flutter/flutter/.pub-cache/hosted/pub.dartlang.org/platform-3.0.2",
      "packageUri": "lib/",
      "languageVersion": "2.12"
    },
    {
      "name": "plugin_platform_interface",
      "rootUri": "file:///C:/src/flutter/flutter/.pub-cache/hosted/pub.dartlang.org/plugin_platform_interface-1.0.3",
      "packageUri": "lib/",
      "languageVersion": "2.1"
    },
    {
      "name": "pointycastle",
      "rootUri": "file:///C:/src/flutter/flutter/.pub-cache/hosted/pub.dartlang.org/pointycastle-2.0.1",
      "packageUri": "lib/",
      "languageVersion": "2.1"
    },
    {
      "name": "process",
      "rootUri": "file:///C:/src/flutter/flutter/.pub-cache/hosted/pub.dartlang.org/process-4.2.4",
      "packageUri": "lib/",
      "languageVersion": "2.14"
    },
    {
      "name": "quiver",
      "rootUri": "file:///C:/src/flutter/flutter/.pub-cache/hosted/pub.dartlang.org/quiver-2.1.5",
      "packageUri": "lib/",
      "languageVersion": "2.0"
    },
    {
      "name": "rxdart",
      "rootUri": "file:///C:/src/flutter/flutter/.pub-cache/hosted/pub.dartlang.org/rxdart-0.25.0",
      "packageUri": "lib/",
      "languageVersion": "2.6"
    },
    {
      "name": "share",
      "rootUri": "file:///C:/src/flutter/flutter/.pub-cache/hosted/pub.dartlang.org/share-2.0.4",
      "packageUri": "lib/",
      "languageVersion": "2.12"
    },
    {
      "name": "shared_preferences",
      "rootUri": "file:///C:/src/flutter/flutter/.pub-cache/hosted/pub.dartlang.org/shared_preferences-2.0.8",
      "packageUri": "lib/",
      "languageVersion": "2.14"
    },
    {
      "name": "shared_preferences_linux",
      "rootUri": "file:///C:/src/flutter/flutter/.pub-cache/hosted/pub.dartlang.org/shared_preferences_linux-2.0.2",
      "packageUri": "lib/",
      "languageVersion": "2.12"
    },
    {
      "name": "shared_preferences_macos",
      "rootUri": "file:///C:/src/flutter/flutter/.pub-cache/hosted/pub.dartlang.org/shared_preferences_macos-2.0.2",
      "packageUri": "lib/",
      "languageVersion": "2.12"
    },
    {
      "name": "shared_preferences_platform_interface",
      "rootUri": "file:///C:/src/flutter/flutter/.pub-cache/hosted/pub.dartlang.org/shared_preferences_platform_interface-2.0.0",
      "packageUri": "lib/",
      "languageVersion": "2.12"
    },
    {
      "name": "shared_preferences_web",
      "rootUri": "file:///C:/src/flutter/flutter/.pub-cache/hosted/pub.dartlang.org/shared_preferences_web-2.0.2",
      "packageUri": "lib/",
      "languageVersion": "2.12"
    },
    {
      "name": "shared_preferences_windows",
      "rootUri": "file:///C:/src/flutter/flutter/.pub-cache/hosted/pub.dartlang.org/shared_preferences_windows-2.0.2",
      "packageUri": "lib/",
      "languageVersion": "2.12"
    },
    {
      "name": "sim_info",
      "rootUri": "file:///C:/src/flutter/flutter/.pub-cache/hosted/pub.dartlang.org/sim_info-0.1.3",
      "packageUri": "lib/",
      "languageVersion": "2.1"
    },
    {
      "name": "sky_engine",
      "rootUri": "file:///C:/src/flutter/flutter/bin/cache/pkg/sky_engine",
      "packageUri": "lib/",
      "languageVersion": "2.12"
    },
    {
      "name": "source_span",
      "rootUri": "file:///C:/src/flutter/flutter/.pub-cache/hosted/pub.dartlang.org/source_span-1.8.1",
      "packageUri": "lib/",
      "languageVersion": "2.12"
    },
    {
      "name": "stack_trace",
      "rootUri": "file:///C:/src/flutter/flutter/.pub-cache/hosted/pub.dartlang.org/stack_trace-1.10.0",
      "packageUri": "lib/",
      "languageVersion": "2.12"
    },
    {
      "name": "stream_transform",
      "rootUri": "file:///C:/src/flutter/flutter/.pub-cache/hosted/pub.dartlang.org/stream_transform-2.0.0",
      "packageUri": "lib/",
      "languageVersion": "2.12"
    },
    {
      "name": "string_scanner",
      "rootUri": "file:///C:/src/flutter/flutter/.pub-cache/hosted/pub.dartlang.org/string_scanner-1.1.0",
      "packageUri": "lib/",
      "languageVersion": "2.12"
    },
    {
      "name": "term_glyph",
      "rootUri": "file:///C:/src/flutter/flutter/.pub-cache/hosted/pub.dartlang.org/term_glyph-1.2.0",
      "packageUri": "lib/",
      "languageVersion": "2.12"
    },
    {
      "name": "timeline_tile",
      "rootUri": "file:///C:/src/flutter/flutter/.pub-cache/hosted/pub.dartlang.org/timeline_tile-2.0.0",
      "packageUri": "lib/",
      "languageVersion": "2.12"
    },
    {
      "name": "twitter_api",
      "rootUri": "file:///C:/src/flutter/flutter/.pub-cache/hosted/pub.dartlang.org/twitter_api-0.1.2",
      "packageUri": "lib/",
      "languageVersion": "2.1"
    },
    {
      "name": "typed_data",
      "rootUri": "file:///C:/src/flutter/flutter/.pub-cache/hosted/pub.dartlang.org/typed_data-1.3.0",
      "packageUri": "lib/",
      "languageVersion": "2.12"
    },
    {
      "name": "url_launcher",
      "rootUri": "file:///C:/src/flutter/flutter/.pub-cache/hosted/pub.dartlang.org/url_launcher-5.7.10",
      "packageUri": "lib/",
      "languageVersion": "2.1"
    },
    {
      "name": "url_launcher_linux",
      "rootUri": "file:///C:/src/flutter/flutter/.pub-cache/hosted/pub.dartlang.org/url_launcher_linux-0.0.1+4",
      "packageUri": "lib/",
      "languageVersion": "2.1"
    },
    {
      "name": "url_launcher_macos",
      "rootUri": "file:///C:/src/flutter/flutter/.pub-cache/hosted/pub.dartlang.org/url_launcher_macos-0.0.1+9",
      "packageUri": "lib/",
      "languageVersion": "2.1"
    },
    {
      "name": "url_launcher_platform_interface",
      "rootUri": "file:///C:/src/flutter/flutter/.pub-cache/hosted/pub.dartlang.org/url_launcher_platform_interface-1.0.9",
      "packageUri": "lib/",
      "languageVersion": "2.1"
    },
    {
      "name": "url_launcher_web",
      "rootUri": "file:///C:/src/flutter/flutter/.pub-cache/hosted/pub.dartlang.org/url_launcher_web-0.1.5+3",
      "packageUri": "lib/",
      "languageVersion": "2.2"
    },
    {
      "name": "url_launcher_windows",
      "rootUri": "file:///C:/src/flutter/flutter/.pub-cache/hosted/pub.dartlang.org/url_launcher_windows-0.0.1+3",
      "packageUri": "lib/",
      "languageVersion": "2.1"
    },
    {
      "name": "vector_math",
      "rootUri": "file:///C:/src/flutter/flutter/.pub-cache/hosted/pub.dartlang.org/vector_math-2.1.0",
      "packageUri": "lib/",
      "languageVersion": "2.12"
    },
    {
      "name": "vibration",
      "rootUri": "file:///C:/src/flutter/flutter/.pub-cache/hosted/pub.dartlang.org/vibration-1.7.3",
      "packageUri": "lib/",
      "languageVersion": "2.0"
    },
    {
      "name": "vibration_web",
      "rootUri": "file:///C:/src/flutter/flutter/.pub-cache/hosted/pub.dartlang.org/vibration_web-1.6.2",
      "packageUri": "lib/",
      "languageVersion": "2.7"
    },
    {
      "name": "webview_flutter",
      "rootUri": "file:///C:/src/flutter/flutter/.pub-cache/hosted/pub.dartlang.org/webview_flutter-1.0.7",
      "packageUri": "lib/",
      "languageVersion": "2.7"
    },
    {
      "name": "wifi_info_flutter",
      "rootUri": "file:///C:/src/flutter/flutter/.pub-cache/hosted/pub.dartlang.org/wifi_info_flutter-2.0.2",
      "packageUri": "lib/",
      "languageVersion": "2.12"
    },
    {
      "name": "wifi_info_flutter_platform_interface",
      "rootUri": "file:///C:/src/flutter/flutter/.pub-cache/hosted/pub.dartlang.org/wifi_info_flutter_platform_interface-2.0.0",
      "packageUri": "lib/",
      "languageVersion": "2.12"
    },
    {
      "name": "win32",
      "rootUri": "file:///C:/src/flutter/flutter/.pub-cache/hosted/pub.dartlang.org/win32-2.2.10",
      "packageUri": "lib/",
      "languageVersion": "2.13"
    },
    {
      "name": "xdg_directories",
      "rootUri": "file:///C:/src/flutter/flutter/.pub-cache/hosted/pub.dartlang.org/xdg_directories-0.2.0",
      "packageUri": "lib/",
      "languageVersion": "2.12"
    },
    {
      "name": "xml",
      "rootUri": "file:///C:/src/flutter/flutter/.pub-cache/hosted/pub.dartlang.org/xml-4.5.1",
      "packageUri": "lib/",
      "languageVersion": "2.7"
    },
    {
      "name": "mobilibus",
      "rootUri": "../",
      "packageUri": "lib/",
      "languageVersion": "2.10"
    }
  ],
  "generated": "2021-12-07T17:21:10.566673Z",
  "generator": "pub",
  "generatorVersion": "2.14.2"
}
