{
  "project_info": {
    "project_number": "873783554753",
    "firebase_url": "https://mobilibusapp.firebaseio.com",
    "project_id": "mobilibusapp",
    "storage_bucket": "mobilibusapp.appspot.com"
  },
  "client": [
    {
      "client_info": {
        "mobilesdk_app_id": "1:873783554753:android:05b61a96190abcc8",
        "android_client_info": {
          "package_name": "br.betim.clicabus"
        }
      },
      "oauth_client": [
        {
          "client_id": "873783554753-unljkqboi9qg4aoip9n9aafj1osdorm6.apps.googleusercontent.com",
          "client_type": 3
        }
      ],
      "api_key": [
        {
          "current_key": "AIzaSyCd1EUJ7_09oSI7LOsDPv8ujD9skVwwwdQ"
        }
      ],
      "services": {
        "appinvite_service": {
          "other_platform_oauth_client": [
            {
              "client_id": "873783554753-5p73jfteip3k5o9moakul3cso519iao6.apps.googleusercontent.com",
              "client_type": 3
            },
            {
              "client_id": "873783554753-1fl2vtu5jskp6nkdgsj03q6rii9a3h85.apps.googleusercontent.com",
              "client_type": 2,
              "ios_info": {
                "bundle_id": "br.fabrifacil",
                "app_store_id": "1479095566"
              }
            }
          ]
        }
      }
    },
    {
      "client_info": {
        "mobilesdk_app_id": "1:873783554753:android:2e3e2d22475871d5eeda40",
        "android_client_info": {
          "package_name": "br.bus.londrina"
        }
      },
      "oauth_client": [
        {
          "client_id": "873783554753-unljkqboi9qg4aoip9n9aafj1osdorm6.apps.googleusercontent.com",
          "client_type": 3
        }
      ],
      "api_key": [
        {
          "current_key": "AIzaSyCd1EUJ7_09oSI7LOsDPv8ujD9skVwwwdQ"
        }
      ],
      "services": {
        "appinvite_service": {
          "other_platform_oauth_client": [
            {
              "client_id": "873783554753-5p73jfteip3k5o9moakul3cso519iao6.apps.googleusercontent.com",
              "client_type": 3
            },
            {
              "client_id": "873783554753-1fl2vtu5jskp6nkdgsj03q6rii9a3h85.apps.googleusercontent.com",
              "client_type": 2,
              "ios_info": {
                "bundle_id": "br.fabrifacil",
                "app_store_id": "1479095566"
              }
            }
          ]
        }
      }
    },
    {
      "client_info": {
        "mobilesdk_app_id": "1:873783554753:android:89ef854d6d0f8d67eeda40",
        "android_client_info": {
          "package_name": "br.bus2"
        }
      },
      "oauth_client": [
        {
          "client_id": "873783554753-unljkqboi9qg4aoip9n9aafj1osdorm6.apps.googleusercontent.com",
          "client_type": 3
        }
      ],
      "api_key": [
        {
          "current_key": "AIzaSyCd1EUJ7_09oSI7LOsDPv8ujD9skVwwwdQ"
        }
      ],
      "services": {
        "appinvite_service": {
          "other_platform_oauth_client": [
            {
              "client_id": "873783554753-5p73jfteip3k5o9moakul3cso519iao6.apps.googleusercontent.com",
              "client_type": 3
            },
            {
              "client_id": "873783554753-1fl2vtu5jskp6nkdgsj03q6rii9a3h85.apps.googleusercontent.com",
              "client_type": 2,
              "ios_info": {
                "bundle_id": "br.fabrifacil",
                "app_store_id": "1479095566"
              }
            }
          ]
        }
      }
    },
    {
      "client_info": {
        "mobilesdk_app_id": "1:873783554753:android:a4c897a93d118dba",
        "android_client_info": {
          "package_name": "br.caxiasurbano.visate"
        }
      },
      "oauth_client": [
        {
          "client_id": "873783554753-unljkqboi9qg4aoip9n9aafj1osdorm6.apps.googleusercontent.com",
          "client_type": 3
        }
      ],
      "api_key": [
        {
          "current_key": "AIzaSyCd1EUJ7_09oSI7LOsDPv8ujD9skVwwwdQ"
        }
      ],
      "services": {
        "appinvite_service": {
          "other_platform_oauth_client": [
            {
              "client_id": "873783554753-5p73jfteip3k5o9moakul3cso519iao6.apps.googleusercontent.com",
              "client_type": 3
            },
            {
              "client_id": "873783554753-1fl2vtu5jskp6nkdgsj03q6rii9a3h85.apps.googleusercontent.com",
              "client_type": 2,
              "ios_info": {
                "bundle_id": "br.fabrifacil",
                "app_store_id": "1479095566"
              }
            }
          ]
        }
      }
    },
    {
      "client_info": {
        "mobilesdk_app_id": "1:873783554753:android:dd83ece24e812c10eeda40",
        "android_client_info": {
          "package_name": "br.cg.sttp"
        }
      },
      "oauth_client": [
        {
          "client_id": "873783554753-unljkqboi9qg4aoip9n9aafj1osdorm6.apps.googleusercontent.com",
          "client_type": 3
        }
      ],
      "api_key": [
        {
          "current_key": "AIzaSyCd1EUJ7_09oSI7LOsDPv8ujD9skVwwwdQ"
        }
      ],
      "services": {
        "appinvite_service": {
          "other_platform_oauth_client": [
            {
              "client_id": "873783554753-5p73jfteip3k5o9moakul3cso519iao6.apps.googleusercontent.com",
              "client_type": 3
            },
            {
              "client_id": "873783554753-1fl2vtu5jskp6nkdgsj03q6rii9a3h85.apps.googleusercontent.com",
              "client_type": 2,
              "ios_info": {
                "bundle_id": "br.fabrifacil",
                "app_store_id": "1479095566"
              }
            }
          ]
        }
      }
    },
    {
      "client_info": {
        "mobilesdk_app_id": "1:873783554753:android:ad71693ac110bf4feeda40",
        "android_client_info": {
          "package_name": "br.com.agenciamontealegre.app"
        }
      },
      "oauth_client": [
        {
          "client_id": "873783554753-unljkqboi9qg4aoip9n9aafj1osdorm6.apps.googleusercontent.com",
          "client_type": 3
        }
      ],
      "api_key": [
        {
          "current_key": "AIzaSyCd1EUJ7_09oSI7LOsDPv8ujD9skVwwwdQ"
        }
      ],
      "services": {
        "appinvite_service": {
          "other_platform_oauth_client": [
            {
              "client_id": "873783554753-5p73jfteip3k5o9moakul3cso519iao6.apps.googleusercontent.com",
              "client_type": 3
            },
            {
              "client_id": "873783554753-1fl2vtu5jskp6nkdgsj03q6rii9a3h85.apps.googleusercontent.com",
              "client_type": 2,
              "ios_info": {
                "bundle_id": "br.fabrifacil",
                "app_store_id": "1479095566"
              }
            }
          ]
        }
      }
    },
    {
      "client_info": {
        "mobilesdk_app_id": "1:873783554753:android:bc962b0b07d2803d",
        "android_client_info": {
          "package_name": "br.com.blumob.app"
        }
      },
      "oauth_client": [
        {
          "client_id": "873783554753-cs4jiteofgss2m8jtqt7sgm54nvsune0.apps.googleusercontent.com",
          "client_type": 1,
          "android_info": {
            "package_name": "br.com.blumob.app",
            "certificate_hash": "41ba82e6aff9ea65e0fe2abe942f6c698d590f76"
          }
        },
        {
          "client_id": "873783554753-unljkqboi9qg4aoip9n9aafj1osdorm6.apps.googleusercontent.com",
          "client_type": 3
        }
      ],
      "api_key": [
        {
          "current_key": "AIzaSyCd1EUJ7_09oSI7LOsDPv8ujD9skVwwwdQ"
        }
      ],
      "services": {
        "appinvite_service": {
          "other_platform_oauth_client": [
            {
              "client_id": "873783554753-5p73jfteip3k5o9moakul3cso519iao6.apps.googleusercontent.com",
              "client_type": 3
            },
            {
              "client_id": "873783554753-1fl2vtu5jskp6nkdgsj03q6rii9a3h85.apps.googleusercontent.com",
              "client_type": 2,
              "ios_info": {
                "bundle_id": "br.fabrifacil",
                "app_store_id": "1479095566"
              }
            }
          ]
        }
      }
    },
    {
      "client_info": {
        "mobilesdk_app_id": "1:873783554753:android:e5e4ea872aee0fda",
        "android_client_info": {
          "package_name": "br.com.buse"
        }
      },
      "oauth_client": [
        {
          "client_id": "873783554753-unljkqboi9qg4aoip9n9aafj1osdorm6.apps.googleusercontent.com",
          "client_type": 3
        }
      ],
      "api_key": [
        {
          "current_key": "AIzaSyCd1EUJ7_09oSI7LOsDPv8ujD9skVwwwdQ"
        }
      ],
      "services": {
        "appinvite_service": {
          "other_platform_oauth_client": [
            {
              "client_id": "873783554753-5p73jfteip3k5o9moakul3cso519iao6.apps.googleusercontent.com",
              "client_type": 3
            },
            {
              "client_id": "873783554753-1fl2vtu5jskp6nkdgsj03q6rii9a3h85.apps.googleusercontent.com",
              "client_type": 2,
              "ios_info": {
                "bundle_id": "br.fabrifacil",
                "app_store_id": "1479095566"
              }
            }
          ]
        }
      }
    },
    {
      "client_info": {
        "mobilesdk_app_id": "1:873783554753:android:922bdb1940458887eeda40",
        "android_client_info": {
          "package_name": "br.com.consorcio.guaicurus"
        }
      },
      "oauth_client": [
        {
          "client_id": "873783554753-unljkqboi9qg4aoip9n9aafj1osdorm6.apps.googleusercontent.com",
          "client_type": 3
        }
      ],
      "api_key": [
        {
          "current_key": "AIzaSyCd1EUJ7_09oSI7LOsDPv8ujD9skVwwwdQ"
        }
      ],
      "services": {
        "appinvite_service": {
          "other_platform_oauth_client": [
            {
              "client_id": "873783554753-5p73jfteip3k5o9moakul3cso519iao6.apps.googleusercontent.com",
              "client_type": 3
            },
            {
              "client_id": "873783554753-1fl2vtu5jskp6nkdgsj03q6rii9a3h85.apps.googleusercontent.com",
              "client_type": 2,
              "ios_info": {
                "bundle_id": "br.fabrifacil",
                "app_store_id": "1479095566"
              }
            }
          ]
        }
      }
    },
    {
      "client_info": {
        "mobilesdk_app_id": "1:873783554753:android:4794468c80e7ed3e",
        "android_client_info": {
          "package_name": "br.com.sorrisodetoledo.app"
        }
      },
      "oauth_client": [
        {
          "client_id": "873783554753-unljkqboi9qg4aoip9n9aafj1osdorm6.apps.googleusercontent.com",
          "client_type": 3
        }
      ],
      "api_key": [
        {
          "current_key": "AIzaSyCd1EUJ7_09oSI7LOsDPv8ujD9skVwwwdQ"
        }
      ],
      "services": {
        "appinvite_service": {
          "other_platform_oauth_client": [
            {
              "client_id": "873783554753-5p73jfteip3k5o9moakul3cso519iao6.apps.googleusercontent.com",
              "client_type": 3
            },
            {
              "client_id": "873783554753-1fl2vtu5jskp6nkdgsj03q6rii9a3h85.apps.googleusercontent.com",
              "client_type": 2,
              "ios_info": {
                "bundle_id": "br.fabrifacil",
                "app_store_id": "1479095566"
              }
            }
          ]
        }
      }
    },
    {
      "client_info": {
        "mobilesdk_app_id": "1:873783554753:android:149afdea87bfc3bb",
        "android_client_info": {
          "package_name": "br.com.sou.app"
        }
      },
      "oauth_client": [
        {
          "client_id": "873783554753-unljkqboi9qg4aoip9n9aafj1osdorm6.apps.googleusercontent.com",
          "client_type": 3
        }
      ],
      "api_key": [
        {
          "current_key": "AIzaSyCd1EUJ7_09oSI7LOsDPv8ujD9skVwwwdQ"
        }
      ],
      "services": {
        "appinvite_service": {
          "other_platform_oauth_client": [
            {
              "client_id": "873783554753-5p73jfteip3k5o9moakul3cso519iao6.apps.googleusercontent.com",
              "client_type": 3
            },
            {
              "client_id": "873783554753-1fl2vtu5jskp6nkdgsj03q6rii9a3h85.apps.googleusercontent.com",
              "client_type": 2,
              "ios_info": {
                "bundle_id": "br.fabrifacil",
                "app_store_id": "1479095566"
              }
            }
          ]
        }
      }
    },
    {
      "client_info": {
        "mobilesdk_app_id": "1:873783554753:android:4eadfc1ce401db3feeda40",
        "android_client_info": {
          "package_name": "br.com.stadtbus"
        }
      },
      "oauth_client": [
        {
          "client_id": "873783554753-unljkqboi9qg4aoip9n9aafj1osdorm6.apps.googleusercontent.com",
          "client_type": 3
        }
      ],
      "api_key": [
        {
          "current_key": "AIzaSyCd1EUJ7_09oSI7LOsDPv8ujD9skVwwwdQ"
        }
      ],
      "services": {
        "appinvite_service": {
          "other_platform_oauth_client": [
            {
              "client_id": "873783554753-5p73jfteip3k5o9moakul3cso519iao6.apps.googleusercontent.com",
              "client_type": 3
            },
            {
              "client_id": "873783554753-1fl2vtu5jskp6nkdgsj03q6rii9a3h85.apps.googleusercontent.com",
              "client_type": 2,
              "ios_info": {
                "bundle_id": "br.fabrifacil",
                "app_store_id": "1479095566"
              }
            }
          ]
        }
      }
    },
    {
      "client_info": {
        "mobilesdk_app_id": "1:873783554753:android:9ae7b9ea447c6bed",
        "android_client_info": {
          "package_name": "br.com.transube.app.busu"
        }
      },
      "oauth_client": [
        {
          "client_id": "873783554753-gd4ajsm8kskjaft2vo2h0ptckni23d9b.apps.googleusercontent.com",
          "client_type": 1,
          "android_info": {
            "package_name": "br.com.transube.app.busu",
            "certificate_hash": "4d2af73bdbc16df9d3fa9913d754626aab07d72a"
          }
        },
        {
          "client_id": "873783554753-unljkqboi9qg4aoip9n9aafj1osdorm6.apps.googleusercontent.com",
          "client_type": 3
        }
      ],
      "api_key": [
        {
          "current_key": "AIzaSyCd1EUJ7_09oSI7LOsDPv8ujD9skVwwwdQ"
        }
      ],
      "services": {
        "appinvite_service": {
          "other_platform_oauth_client": [
            {
              "client_id": "873783554753-5p73jfteip3k5o9moakul3cso519iao6.apps.googleusercontent.com",
              "client_type": 3
            },
            {
              "client_id": "873783554753-1fl2vtu5jskp6nkdgsj03q6rii9a3h85.apps.googleusercontent.com",
              "client_type": 2,
              "ios_info": {
                "bundle_id": "br.fabrifacil",
                "app_store_id": "1479095566"
              }
            }
          ]
        }
      }
    },
    {
      "client_info": {
        "mobilesdk_app_id": "1:873783554753:android:778d71fb8fedcc36",
        "android_client_info": {
          "package_name": "br.com.unimarservicelog.app"
        }
      },
      "oauth_client": [
        {
          "client_id": "873783554753-unljkqboi9qg4aoip9n9aafj1osdorm6.apps.googleusercontent.com",
          "client_type": 3
        }
      ],
      "api_key": [
        {
          "current_key": "AIzaSyCd1EUJ7_09oSI7LOsDPv8ujD9skVwwwdQ"
        }
      ],
      "services": {
        "appinvite_service": {
          "other_platform_oauth_client": [
            {
              "client_id": "873783554753-5p73jfteip3k5o9moakul3cso519iao6.apps.googleusercontent.com",
              "client_type": 3
            },
            {
              "client_id": "873783554753-1fl2vtu5jskp6nkdgsj03q6rii9a3h85.apps.googleusercontent.com",
              "client_type": 2,
              "ios_info": {
                "bundle_id": "br.fabrifacil",
                "app_store_id": "1479095566"
              }
            }
          ]
        }
      }
    },
    {
      "client_info": {
        "mobilesdk_app_id": "1:873783554753:android:529ecce82cab0866",
        "android_client_info": {
          "package_name": "br.contagem.vadeonibus"
        }
      },
      "oauth_client": [
        {
          "client_id": "873783554753-unljkqboi9qg4aoip9n9aafj1osdorm6.apps.googleusercontent.com",
          "client_type": 3
        }
      ],
      "api_key": [
        {
          "current_key": "AIzaSyCd1EUJ7_09oSI7LOsDPv8ujD9skVwwwdQ"
        }
      ],
      "services": {
        "appinvite_service": {
          "other_platform_oauth_client": [
            {
              "client_id": "873783554753-5p73jfteip3k5o9moakul3cso519iao6.apps.googleusercontent.com",
              "client_type": 3
            },
            {
              "client_id": "873783554753-1fl2vtu5jskp6nkdgsj03q6rii9a3h85.apps.googleusercontent.com",
              "client_type": 2,
              "ios_info": {
                "bundle_id": "br.fabrifacil",
                "app_store_id": "1479095566"
              }
            }
          ]
        }
      }
    },
    {
      "client_info": {
        "mobilesdk_app_id": "1:873783554753:android:77d7636c971339f9",
        "android_client_info": {
          "package_name": "br.fabrifacil"
        }
      },
      "oauth_client": [
        {
          "client_id": "873783554753-unljkqboi9qg4aoip9n9aafj1osdorm6.apps.googleusercontent.com",
          "client_type": 3
        }
      ],
      "api_key": [
        {
          "current_key": "AIzaSyCd1EUJ7_09oSI7LOsDPv8ujD9skVwwwdQ"
        }
      ],
      "services": {
        "appinvite_service": {
          "other_platform_oauth_client": [
            {
              "client_id": "873783554753-5p73jfteip3k5o9moakul3cso519iao6.apps.googleusercontent.com",
              "client_type": 3
            },
            {
              "client_id": "873783554753-1fl2vtu5jskp6nkdgsj03q6rii9a3h85.apps.googleusercontent.com",
              "client_type": 2,
              "ios_info": {
                "bundle_id": "br.fabrifacil",
                "app_store_id": "1479095566"
              }
            }
          ]
        }
      }
    },
    {
      "client_info": {
        "mobilesdk_app_id": "1:873783554753:android:764f34ca4a5fabd9eeda40",
        "android_client_info": {
          "package_name": "br.francovig"
        }
      },
      "oauth_client": [
        {
          "client_id": "873783554753-unljkqboi9qg4aoip9n9aafj1osdorm6.apps.googleusercontent.com",
          "client_type": 3
        }
      ],
      "api_key": [
        {
          "current_key": "AIzaSyCd1EUJ7_09oSI7LOsDPv8ujD9skVwwwdQ"
        }
      ],
      "services": {
        "appinvite_service": {
          "other_platform_oauth_client": [
            {
              "client_id": "873783554753-5p73jfteip3k5o9moakul3cso519iao6.apps.googleusercontent.com",
              "client_type": 3
            },
            {
              "client_id": "873783554753-1fl2vtu5jskp6nkdgsj03q6rii9a3h85.apps.googleusercontent.com",
              "client_type": 2,
              "ios_info": {
                "bundle_id": "br.fabrifacil",
                "app_store_id": "1479095566"
              }
            }
          ]
        }
      }
    },
    {
      "client_info": {
        "mobilesdk_app_id": "1:873783554753:android:580cb579320e52a3",
        "android_client_info": {
          "package_name": "br.fretamento.mobi"
        }
      },
      "oauth_client": [
        {
          "client_id": "873783554753-unljkqboi9qg4aoip9n9aafj1osdorm6.apps.googleusercontent.com",
          "client_type": 3
        }
      ],
      "api_key": [
        {
          "current_key": "AIzaSyCd1EUJ7_09oSI7LOsDPv8ujD9skVwwwdQ"
        }
      ],
      "services": {
        "appinvite_service": {
          "other_platform_oauth_client": [
            {
              "client_id": "873783554753-5p73jfteip3k5o9moakul3cso519iao6.apps.googleusercontent.com",
              "client_type": 3
            },
            {
              "client_id": "873783554753-1fl2vtu5jskp6nkdgsj03q6rii9a3h85.apps.googleusercontent.com",
              "client_type": 2,
              "ios_info": {
                "bundle_id": "br.fabrifacil",
                "app_store_id": "1479095566"
              }
            }
          ]
        }
      }
    },
    {
      "client_info": {
        "mobilesdk_app_id": "1:873783554753:android:ba010b9fd797ff46eeda40",
        "android_client_info": {
          "package_name": "br.fretamento.weg"
        }
      },
      "oauth_client": [
        {
          "client_id": "873783554753-unljkqboi9qg4aoip9n9aafj1osdorm6.apps.googleusercontent.com",
          "client_type": 3
        }
      ],
      "api_key": [
        {
          "current_key": "AIzaSyCd1EUJ7_09oSI7LOsDPv8ujD9skVwwwdQ"
        }
      ],
      "services": {
        "appinvite_service": {
          "other_platform_oauth_client": [
            {
              "client_id": "873783554753-5p73jfteip3k5o9moakul3cso519iao6.apps.googleusercontent.com",
              "client_type": 3
            },
            {
              "client_id": "873783554753-1fl2vtu5jskp6nkdgsj03q6rii9a3h85.apps.googleusercontent.com",
              "client_type": 2,
              "ios_info": {
                "bundle_id": "br.fabrifacil",
                "app_store_id": "1479095566"
              }
            }
          ]
        }
      }
    },
    {
      "client_info": {
        "mobilesdk_app_id": "1:873783554753:android:d541d12b4ec31255eeda40",
        "android_client_info": {
          "package_name": "br.guarapuava.peroladooeste"
        }
      },
      "oauth_client": [
        {
          "client_id": "873783554753-unljkqboi9qg4aoip9n9aafj1osdorm6.apps.googleusercontent.com",
          "client_type": 3
        }
      ],
      "api_key": [
        {
          "current_key": "AIzaSyCd1EUJ7_09oSI7LOsDPv8ujD9skVwwwdQ"
        }
      ],
      "services": {
        "appinvite_service": {
          "other_platform_oauth_client": [
            {
              "client_id": "873783554753-5p73jfteip3k5o9moakul3cso519iao6.apps.googleusercontent.com",
              "client_type": 3
            },
            {
              "client_id": "873783554753-1fl2vtu5jskp6nkdgsj03q6rii9a3h85.apps.googleusercontent.com",
              "client_type": 2,
              "ios_info": {
                "bundle_id": "br.fabrifacil",
                "app_store_id": "1479095566"
              }
            }
          ]
        }
      }
    },
    {
      "client_info": {
        "mobilesdk_app_id": "1:873783554753:android:c5270b9adef6880deeda40",
        "android_client_info": {
          "package_name": "br.jmbus"
        }
      },
      "oauth_client": [
        {
          "client_id": "873783554753-unljkqboi9qg4aoip9n9aafj1osdorm6.apps.googleusercontent.com",
          "client_type": 3
        }
      ],
      "api_key": [
        {
          "current_key": "AIzaSyCd1EUJ7_09oSI7LOsDPv8ujD9skVwwwdQ"
        }
      ],
      "services": {
        "appinvite_service": {
          "other_platform_oauth_client": [
            {
              "client_id": "873783554753-5p73jfteip3k5o9moakul3cso519iao6.apps.googleusercontent.com",
              "client_type": 3
            },
            {
              "client_id": "873783554753-1fl2vtu5jskp6nkdgsj03q6rii9a3h85.apps.googleusercontent.com",
              "client_type": 2,
              "ios_info": {
                "bundle_id": "br.fabrifacil",
                "app_store_id": "1479095566"
              }
            }
          ]
        }
      }
    },
    {
      "client_info": {
        "mobilesdk_app_id": "1:873783554753:android:0beb99fbf85c6047",
        "android_client_info": {
          "package_name": "br.mobilibus"
        }
      },
      "oauth_client": [
        {
          "client_id": "873783554753-7v13fbpgdkm8dcgcqqqu22dthsgctbjh.apps.googleusercontent.com",
          "client_type": 1,
          "android_info": {
            "package_name": "br.mobilibus",
            "certificate_hash": "2d21f7e9a1d69644f8a98afc3d1679cea7f5743f"
          }
        },
        {
          "client_id": "873783554753-unljkqboi9qg4aoip9n9aafj1osdorm6.apps.googleusercontent.com",
          "client_type": 3
        }
      ],
      "api_key": [
        {
          "current_key": "AIzaSyCd1EUJ7_09oSI7LOsDPv8ujD9skVwwwdQ"
        }
      ],
      "services": {
        "appinvite_service": {
          "other_platform_oauth_client": [
            {
              "client_id": "873783554753-5p73jfteip3k5o9moakul3cso519iao6.apps.googleusercontent.com",
              "client_type": 3
            },
            {
              "client_id": "873783554753-1fl2vtu5jskp6nkdgsj03q6rii9a3h85.apps.googleusercontent.com",
              "client_type": 2,
              "ios_info": {
                "bundle_id": "br.fabrifacil",
                "app_store_id": "1479095566"
              }
            }
          ]
        }
      }
    },
    {
      "client_info": {
        "mobilesdk_app_id": "1:873783554753:android:2856b276f88bfd2aeeda40",
        "android_client_info": {
          "package_name": "br.mobilibus.bpi"
        }
      },
      "oauth_client": [
        {
          "client_id": "873783554753-unljkqboi9qg4aoip9n9aafj1osdorm6.apps.googleusercontent.com",
          "client_type": 3
        }
      ],
      "api_key": [
        {
          "current_key": "AIzaSyCd1EUJ7_09oSI7LOsDPv8ujD9skVwwwdQ"
        }
      ],
      "services": {
        "appinvite_service": {
          "other_platform_oauth_client": [
            {
              "client_id": "873783554753-5p73jfteip3k5o9moakul3cso519iao6.apps.googleusercontent.com",
              "client_type": 3
            },
            {
              "client_id": "873783554753-1fl2vtu5jskp6nkdgsj03q6rii9a3h85.apps.googleusercontent.com",
              "client_type": 2,
              "ios_info": {
                "bundle_id": "br.fabrifacil",
                "app_store_id": "1479095566"
              }
            }
          ]
        }
      }
    },
    {
      "client_info": {
        "mobilesdk_app_id": "1:873783554753:android:cff56b3e4c7ee153eeda40",
        "android_client_info": {
          "package_name": "br.mobilibus.falcao"
        }
      },
      "oauth_client": [
        {
          "client_id": "873783554753-unljkqboi9qg4aoip9n9aafj1osdorm6.apps.googleusercontent.com",
          "client_type": 3
        }
      ],
      "api_key": [
        {
          "current_key": "AIzaSyCd1EUJ7_09oSI7LOsDPv8ujD9skVwwwdQ"
        }
      ],
      "services": {
        "appinvite_service": {
          "other_platform_oauth_client": [
            {
              "client_id": "873783554753-5p73jfteip3k5o9moakul3cso519iao6.apps.googleusercontent.com",
              "client_type": 3
            },
            {
              "client_id": "873783554753-1fl2vtu5jskp6nkdgsj03q6rii9a3h85.apps.googleusercontent.com",
              "client_type": 2,
              "ios_info": {
                "bundle_id": "br.fabrifacil",
                "app_store_id": "1479095566"
              }
            }
          ]
        }
      }
    },
    {
      "client_info": {
        "mobilesdk_app_id": "1:873783554753:android:21859c832364d28beeda40",
        "android_client_info": {
          "package_name": "br.mobilibus.jaraguatem"
        }
      },
      "oauth_client": [
        {
          "client_id": "873783554753-unljkqboi9qg4aoip9n9aafj1osdorm6.apps.googleusercontent.com",
          "client_type": 3
        }
      ],
      "api_key": [
        {
          "current_key": "AIzaSyCd1EUJ7_09oSI7LOsDPv8ujD9skVwwwdQ"
        }
      ],
      "services": {
        "appinvite_service": {
          "other_platform_oauth_client": [
            {
              "client_id": "873783554753-5p73jfteip3k5o9moakul3cso519iao6.apps.googleusercontent.com",
              "client_type": 3
            },
            {
              "client_id": "873783554753-1fl2vtu5jskp6nkdgsj03q6rii9a3h85.apps.googleusercontent.com",
              "client_type": 2,
              "ios_info": {
                "bundle_id": "br.fabrifacil",
                "app_store_id": "1479095566"
              }
            }
          ]
        }
      }
    },
    {
      "client_info": {
        "mobilesdk_app_id": "1:873783554753:android:9385cac6b2d11b8eeeda40",
        "android_client_info": {
          "package_name": "br.mobilibus.onibusbauru"
        }
      },
      "oauth_client": [
        {
          "client_id": "873783554753-unljkqboi9qg4aoip9n9aafj1osdorm6.apps.googleusercontent.com",
          "client_type": 3
        }
      ],
      "api_key": [
        {
          "current_key": "AIzaSyCd1EUJ7_09oSI7LOsDPv8ujD9skVwwwdQ"
        }
      ],
      "services": {
        "appinvite_service": {
          "other_platform_oauth_client": [
            {
              "client_id": "873783554753-5p73jfteip3k5o9moakul3cso519iao6.apps.googleusercontent.com",
              "client_type": 3
            },
            {
              "client_id": "873783554753-1fl2vtu5jskp6nkdgsj03q6rii9a3h85.apps.googleusercontent.com",
              "client_type": 2,
              "ios_info": {
                "bundle_id": "br.fabrifacil",
                "app_store_id": "1479095566"
              }
            }
          ]
        }
      }
    },
    {
      "client_info": {
        "mobilesdk_app_id": "1:873783554753:android:0e4d4218f6328d25eeda40",
        "android_client_info": {
          "package_name": "br.mobilibus.valesim"
        }
      },
      "oauth_client": [
        {
          "client_id": "873783554753-unljkqboi9qg4aoip9n9aafj1osdorm6.apps.googleusercontent.com",
          "client_type": 3
        }
      ],
      "api_key": [
        {
          "current_key": "AIzaSyCd1EUJ7_09oSI7LOsDPv8ujD9skVwwwdQ"
        }
      ],
      "services": {
        "appinvite_service": {
          "other_platform_oauth_client": [
            {
              "client_id": "873783554753-5p73jfteip3k5o9moakul3cso519iao6.apps.googleusercontent.com",
              "client_type": 3
            },
            {
              "client_id": "873783554753-1fl2vtu5jskp6nkdgsj03q6rii9a3h85.apps.googleusercontent.com",
              "client_type": 2,
              "ios_info": {
                "bundle_id": "br.fabrifacil",
                "app_store_id": "1479095566"
              }
            }
          ]
        }
      }
    },
    {
      "client_info": {
        "mobilesdk_app_id": "1:873783554753:android:5bc576bc3bdd354a",
        "android_client_info": {
          "package_name": "br.oceanicasul"
        }
      },
      "oauth_client": [
        {
          "client_id": "873783554753-unljkqboi9qg4aoip9n9aafj1osdorm6.apps.googleusercontent.com",
          "client_type": 3
        }
      ],
      "api_key": [
        {
          "current_key": "AIzaSyCd1EUJ7_09oSI7LOsDPv8ujD9skVwwwdQ"
        }
      ],
      "services": {
        "appinvite_service": {
          "other_platform_oauth_client": [
            {
              "client_id": "873783554753-5p73jfteip3k5o9moakul3cso519iao6.apps.googleusercontent.com",
              "client_type": 3
            },
            {
              "client_id": "873783554753-1fl2vtu5jskp6nkdgsj03q6rii9a3h85.apps.googleusercontent.com",
              "client_type": 2,
              "ios_info": {
                "bundle_id": "br.fabrifacil",
                "app_store_id": "1479095566"
              }
            }
          ]
        }
      }
    },
    {
      "client_info": {
        "mobilesdk_app_id": "1:873783554753:android:a65fd3019ece57dfeeda40",
        "android_client_info": {
          "package_name": "br.olympus"
        }
      },
      "oauth_client": [
        {
          "client_id": "873783554753-unljkqboi9qg4aoip9n9aafj1osdorm6.apps.googleusercontent.com",
          "client_type": 3
        }
      ],
      "api_key": [
        {
          "current_key": "AIzaSyCd1EUJ7_09oSI7LOsDPv8ujD9skVwwwdQ"
        }
      ],
      "services": {
        "appinvite_service": {
          "other_platform_oauth_client": [
            {
              "client_id": "873783554753-5p73jfteip3k5o9moakul3cso519iao6.apps.googleusercontent.com",
              "client_type": 3
            },
            {
              "client_id": "873783554753-1fl2vtu5jskp6nkdgsj03q6rii9a3h85.apps.googleusercontent.com",
              "client_type": 2,
              "ios_info": {
                "bundle_id": "br.fabrifacil",
                "app_store_id": "1479095566"
              }
            }
          ]
        }
      }
    },
    {
      "client_info": {
        "mobilesdk_app_id": "1:873783554753:android:741fbdeacec36d8a",
        "android_client_info": {
          "package_name": "br.realidade"
        }
      },
      "oauth_client": [
        {
          "client_id": "873783554753-unljkqboi9qg4aoip9n9aafj1osdorm6.apps.googleusercontent.com",
          "client_type": 3
        }
      ],
      "api_key": [
        {
          "current_key": "AIzaSyCd1EUJ7_09oSI7LOsDPv8ujD9skVwwwdQ"
        }
      ],
      "services": {
        "appinvite_service": {
          "other_platform_oauth_client": [
            {
              "client_id": "873783554753-5p73jfteip3k5o9moakul3cso519iao6.apps.googleusercontent.com",
              "client_type": 3
            },
            {
              "client_id": "873783554753-1fl2vtu5jskp6nkdgsj03q6rii9a3h85.apps.googleusercontent.com",
              "client_type": 2,
              "ios_info": {
                "bundle_id": "br.fabrifacil",
                "app_store_id": "1479095566"
              }
            }
          ]
        }
      }
    },
    {
      "client_info": {
        "mobilesdk_app_id": "1:873783554753:android:da1d4400a798292ceeda40",
        "android_client_info": {
          "package_name": "br.rj.transbm"
        }
      },
      "oauth_client": [
        {
          "client_id": "873783554753-unljkqboi9qg4aoip9n9aafj1osdorm6.apps.googleusercontent.com",
          "client_type": 3
        }
      ],
      "api_key": [
        {
          "current_key": "AIzaSyCd1EUJ7_09oSI7LOsDPv8ujD9skVwwwdQ"
        }
      ],
      "services": {
        "appinvite_service": {
          "other_platform_oauth_client": [
            {
              "client_id": "873783554753-5p73jfteip3k5o9moakul3cso519iao6.apps.googleusercontent.com",
              "client_type": 3
            },
            {
              "client_id": "873783554753-1fl2vtu5jskp6nkdgsj03q6rii9a3h85.apps.googleusercontent.com",
              "client_type": 2,
              "ios_info": {
                "bundle_id": "br.fabrifacil",
                "app_store_id": "1479095566"
              }
            }
          ]
        }
      }
    },
    {
      "client_info": {
        "mobilesdk_app_id": "1:873783554753:android:9b7a74cd07208023eeda40",
        "android_client_info": {
          "package_name": "br.salineira"
        }
      },
      "oauth_client": [
        {
          "client_id": "873783554753-unljkqboi9qg4aoip9n9aafj1osdorm6.apps.googleusercontent.com",
          "client_type": 3
        }
      ],
      "api_key": [
        {
          "current_key": "AIzaSyCd1EUJ7_09oSI7LOsDPv8ujD9skVwwwdQ"
        }
      ],
      "services": {
        "appinvite_service": {
          "other_platform_oauth_client": [
            {
              "client_id": "873783554753-5p73jfteip3k5o9moakul3cso519iao6.apps.googleusercontent.com",
              "client_type": 3
            },
            {
              "client_id": "873783554753-1fl2vtu5jskp6nkdgsj03q6rii9a3h85.apps.googleusercontent.com",
              "client_type": 2,
              "ios_info": {
                "bundle_id": "br.fabrifacil",
                "app_store_id": "1479095566"
              }
            }
          ]
        }
      }
    },
    {
      "client_info": {
        "mobilesdk_app_id": "1:873783554753:android:8015512ff3f1db58",
        "android_client_info": {
          "package_name": "br.saojose.alexandreturismo"
        }
      },
      "oauth_client": [
        {
          "client_id": "873783554753-unljkqboi9qg4aoip9n9aafj1osdorm6.apps.googleusercontent.com",
          "client_type": 3
        }
      ],
      "api_key": [
        {
          "current_key": "AIzaSyCd1EUJ7_09oSI7LOsDPv8ujD9skVwwwdQ"
        }
      ],
      "services": {
        "appinvite_service": {
          "other_platform_oauth_client": [
            {
              "client_id": "873783554753-5p73jfteip3k5o9moakul3cso519iao6.apps.googleusercontent.com",
              "client_type": 3
            },
            {
              "client_id": "873783554753-1fl2vtu5jskp6nkdgsj03q6rii9a3h85.apps.googleusercontent.com",
              "client_type": 2,
              "ios_info": {
                "bundle_id": "br.fabrifacil",
                "app_store_id": "1479095566"
              }
            }
          ]
        }
      }
    },
    {
      "client_info": {
        "mobilesdk_app_id": "1:873783554753:android:b1a56bbfa27d0998eeda40",
        "android_client_info": {
          "package_name": "br.sc.santa.teresinha"
        }
      },
      "oauth_client": [
        {
          "client_id": "873783554753-unljkqboi9qg4aoip9n9aafj1osdorm6.apps.googleusercontent.com",
          "client_type": 3
        }
      ],
      "api_key": [
        {
          "current_key": "AIzaSyCd1EUJ7_09oSI7LOsDPv8ujD9skVwwwdQ"
        }
      ],
      "services": {
        "appinvite_service": {
          "other_platform_oauth_client": [
            {
              "client_id": "873783554753-5p73jfteip3k5o9moakul3cso519iao6.apps.googleusercontent.com",
              "client_type": 3
            },
            {
              "client_id": "873783554753-1fl2vtu5jskp6nkdgsj03q6rii9a3h85.apps.googleusercontent.com",
              "client_type": 2,
              "ios_info": {
                "bundle_id": "br.fabrifacil",
                "app_store_id": "1479095566"
              }
            }
          ]
        }
      }
    },
    {
      "client_info": {
        "mobilesdk_app_id": "1:873783554753:android:371a2fddea8128b2eeda40",
        "android_client_info": {
          "package_name": "br.seja.mais"
        }
      },
      "oauth_client": [
        {
          "client_id": "873783554753-unljkqboi9qg4aoip9n9aafj1osdorm6.apps.googleusercontent.com",
          "client_type": 3
        }
      ],
      "api_key": [
        {
          "current_key": "AIzaSyCd1EUJ7_09oSI7LOsDPv8ujD9skVwwwdQ"
        }
      ],
      "services": {
        "appinvite_service": {
          "other_platform_oauth_client": [
            {
              "client_id": "873783554753-5p73jfteip3k5o9moakul3cso519iao6.apps.googleusercontent.com",
              "client_type": 3
            },
            {
              "client_id": "873783554753-1fl2vtu5jskp6nkdgsj03q6rii9a3h85.apps.googleusercontent.com",
              "client_type": 2,
              "ios_info": {
                "bundle_id": "br.fabrifacil",
                "app_store_id": "1479095566"
              }
            }
          ]
        }
      }
    },
    {
      "client_info": {
        "mobilesdk_app_id": "1:873783554753:android:3dba04432e9ea738eeda40",
        "android_client_info": {
          "package_name": "br.sp.amtu"
        }
      },
      "oauth_client": [
        {
          "client_id": "873783554753-unljkqboi9qg4aoip9n9aafj1osdorm6.apps.googleusercontent.com",
          "client_type": 3
        }
      ],
      "api_key": [
        {
          "current_key": "AIzaSyCd1EUJ7_09oSI7LOsDPv8ujD9skVwwwdQ"
        }
      ],
      "services": {
        "appinvite_service": {
          "other_platform_oauth_client": [
            {
              "client_id": "873783554753-5p73jfteip3k5o9moakul3cso519iao6.apps.googleusercontent.com",
              "client_type": 3
            },
            {
              "client_id": "873783554753-1fl2vtu5jskp6nkdgsj03q6rii9a3h85.apps.googleusercontent.com",
              "client_type": 2,
              "ios_info": {
                "bundle_id": "br.fabrifacil",
                "app_store_id": "1479095566"
              }
            }
          ]
        }
      }
    },
    {
      "client_info": {
        "mobilesdk_app_id": "1:873783554753:android:7ad47b505261f088eeda40",
        "android_client_info": {
          "package_name": "br.ss.telematica"
        }
      },
      "oauth_client": [
        {
          "client_id": "873783554753-unljkqboi9qg4aoip9n9aafj1osdorm6.apps.googleusercontent.com",
          "client_type": 3
        }
      ],
      "api_key": [
        {
          "current_key": "AIzaSyCd1EUJ7_09oSI7LOsDPv8ujD9skVwwwdQ"
        }
      ],
      "services": {
        "appinvite_service": {
          "other_platform_oauth_client": [
            {
              "client_id": "873783554753-5p73jfteip3k5o9moakul3cso519iao6.apps.googleusercontent.com",
              "client_type": 3
            },
            {
              "client_id": "873783554753-1fl2vtu5jskp6nkdgsj03q6rii9a3h85.apps.googleusercontent.com",
              "client_type": 2,
              "ios_info": {
                "bundle_id": "br.fabrifacil",
                "app_store_id": "1479095566"
              }
            }
          ]
        }
      }
    },
    {
      "client_info": {
        "mobilesdk_app_id": "1:873783554753:android:9d5203f18d3e069c",
        "android_client_info": {
          "package_name": "br.til"
        }
      },
      "oauth_client": [
        {
          "client_id": "873783554753-unljkqboi9qg4aoip9n9aafj1osdorm6.apps.googleusercontent.com",
          "client_type": 3
        }
      ],
      "api_key": [
        {
          "current_key": "AIzaSyCd1EUJ7_09oSI7LOsDPv8ujD9skVwwwdQ"
        }
      ],
      "services": {
        "appinvite_service": {
          "other_platform_oauth_client": [
            {
              "client_id": "873783554753-5p73jfteip3k5o9moakul3cso519iao6.apps.googleusercontent.com",
              "client_type": 3
            },
            {
              "client_id": "873783554753-1fl2vtu5jskp6nkdgsj03q6rii9a3h85.apps.googleusercontent.com",
              "client_type": 2,
              "ios_info": {
                "bundle_id": "br.fabrifacil",
                "app_store_id": "1479095566"
              }
            }
          ]
        }
      }
    },
    {
      "client_info": {
        "mobilesdk_app_id": "1:873783554753:android:f8d8d9e4964d9c86eeda40",
        "android_client_info": {
          "package_name": "br.tramandai.saojose"
        }
      },
      "oauth_client": [
        {
          "client_id": "873783554753-unljkqboi9qg4aoip9n9aafj1osdorm6.apps.googleusercontent.com",
          "client_type": 3
        }
      ],
      "api_key": [
        {
          "current_key": "AIzaSyCd1EUJ7_09oSI7LOsDPv8ujD9skVwwwdQ"
        }
      ],
      "services": {
        "appinvite_service": {
          "other_platform_oauth_client": [
            {
              "client_id": "873783554753-5p73jfteip3k5o9moakul3cso519iao6.apps.googleusercontent.com",
              "client_type": 3
            },
            {
              "client_id": "873783554753-1fl2vtu5jskp6nkdgsj03q6rii9a3h85.apps.googleusercontent.com",
              "client_type": 2,
              "ios_info": {
                "bundle_id": "br.fabrifacil",
                "app_store_id": "1479095566"
              }
            }
          ]
        }
      }
    },
    {
      "client_info": {
        "mobilesdk_app_id": "1:873783554753:android:1b952b26f1feacdeeeda40",
        "android_client_info": {
          "package_name": "br.transnetti.basf"
        }
      },
      "oauth_client": [
        {
          "client_id": "873783554753-unljkqboi9qg4aoip9n9aafj1osdorm6.apps.googleusercontent.com",
          "client_type": 3
        }
      ],
      "api_key": [
        {
          "current_key": "AIzaSyCd1EUJ7_09oSI7LOsDPv8ujD9skVwwwdQ"
        }
      ],
      "services": {
        "appinvite_service": {
          "other_platform_oauth_client": [
            {
              "client_id": "873783554753-5p73jfteip3k5o9moakul3cso519iao6.apps.googleusercontent.com",
              "client_type": 3
            },
            {
              "client_id": "873783554753-1fl2vtu5jskp6nkdgsj03q6rii9a3h85.apps.googleusercontent.com",
              "client_type": 2,
              "ios_info": {
                "bundle_id": "br.fabrifacil",
                "app_store_id": "1479095566"
              }
            }
          ]
        }
      }
    },
    {
      "client_info": {
        "mobilesdk_app_id": "1:873783554753:android:5bab74e41376079aeeda40",
        "android_client_info": {
          "package_name": "br.udibus"
        }
      },
      "oauth_client": [
        {
          "client_id": "873783554753-unljkqboi9qg4aoip9n9aafj1osdorm6.apps.googleusercontent.com",
          "client_type": 3
        }
      ],
      "api_key": [
        {
          "current_key": "AIzaSyCd1EUJ7_09oSI7LOsDPv8ujD9skVwwwdQ"
        }
      ],
      "services": {
        "appinvite_service": {
          "other_platform_oauth_client": [
            {
              "client_id": "873783554753-5p73jfteip3k5o9moakul3cso519iao6.apps.googleusercontent.com",
              "client_type": 3
            },
            {
              "client_id": "873783554753-1fl2vtu5jskp6nkdgsj03q6rii9a3h85.apps.googleusercontent.com",
              "client_type": 2,
              "ios_info": {
                "bundle_id": "br.fabrifacil",
                "app_store_id": "1479095566"
              }
            }
          ]
        }
      }
    },
    {
      "client_info": {
        "mobilesdk_app_id": "1:873783554753:android:787e0c6c8483996deeda40",
        "android_client_info": {
          "package_name": "br.univale.cenibra"
        }
      },
      "oauth_client": [
        {
          "client_id": "873783554753-unljkqboi9qg4aoip9n9aafj1osdorm6.apps.googleusercontent.com",
          "client_type": 3
        }
      ],
      "api_key": [
        {
          "current_key": "AIzaSyCd1EUJ7_09oSI7LOsDPv8ujD9skVwwwdQ"
        }
      ],
      "services": {
        "appinvite_service": {
          "other_platform_oauth_client": [
            {
              "client_id": "873783554753-5p73jfteip3k5o9moakul3cso519iao6.apps.googleusercontent.com",
              "client_type": 3
            },
            {
              "client_id": "873783554753-1fl2vtu5jskp6nkdgsj03q6rii9a3h85.apps.googleusercontent.com",
              "client_type": 2,
              "ios_info": {
                "bundle_id": "br.fabrifacil",
                "app_store_id": "1479095566"
              }
            }
          ]
        }
      }
    },
    {
      "client_info": {
        "mobilesdk_app_id": "1:873783554753:android:a12d616b260ba1a8eeda40",
        "android_client_info": {
          "package_name": "br.univale.continental"
        }
      },
      "oauth_client": [
        {
          "client_id": "873783554753-unljkqboi9qg4aoip9n9aafj1osdorm6.apps.googleusercontent.com",
          "client_type": 3
        }
      ],
      "api_key": [
        {
          "current_key": "AIzaSyCd1EUJ7_09oSI7LOsDPv8ujD9skVwwwdQ"
        }
      ],
      "services": {
        "appinvite_service": {
          "other_platform_oauth_client": [
            {
              "client_id": "873783554753-5p73jfteip3k5o9moakul3cso519iao6.apps.googleusercontent.com",
              "client_type": 3
            },
            {
              "client_id": "873783554753-1fl2vtu5jskp6nkdgsj03q6rii9a3h85.apps.googleusercontent.com",
              "client_type": 2,
              "ios_info": {
                "bundle_id": "br.fabrifacil",
                "app_store_id": "1479095566"
              }
            }
          ]
        }
      }
    },
    {
      "client_info": {
        "mobilesdk_app_id": "1:873783554753:android:c3cac06ecc7363f1eeda40",
        "android_client_info": {
          "package_name": "br.univale.usiminas"
        }
      },
      "oauth_client": [
        {
          "client_id": "873783554753-unljkqboi9qg4aoip9n9aafj1osdorm6.apps.googleusercontent.com",
          "client_type": 3
        }
      ],
      "api_key": [
        {
          "current_key": "AIzaSyCd1EUJ7_09oSI7LOsDPv8ujD9skVwwwdQ"
        }
      ],
      "services": {
        "appinvite_service": {
          "other_platform_oauth_client": [
            {
              "client_id": "873783554753-5p73jfteip3k5o9moakul3cso519iao6.apps.googleusercontent.com",
              "client_type": 3
            },
            {
              "client_id": "873783554753-1fl2vtu5jskp6nkdgsj03q6rii9a3h85.apps.googleusercontent.com",
              "client_type": 2,
              "ios_info": {
                "bundle_id": "br.fabrifacil",
                "app_store_id": "1479095566"
              }
            }
          ]
        }
      }
    },
    {
      "client_info": {
        "mobilesdk_app_id": "1:873783554753:android:64bc8523d3befeb7eeda40",
        "android_client_info": {
          "package_name": "br.univale.vale"
        }
      },
      "oauth_client": [
        {
          "client_id": "873783554753-unljkqboi9qg4aoip9n9aafj1osdorm6.apps.googleusercontent.com",
          "client_type": 3
        }
      ],
      "api_key": [
        {
          "current_key": "AIzaSyCd1EUJ7_09oSI7LOsDPv8ujD9skVwwwdQ"
        }
      ],
      "services": {
        "appinvite_service": {
          "other_platform_oauth_client": [
            {
              "client_id": "873783554753-5p73jfteip3k5o9moakul3cso519iao6.apps.googleusercontent.com",
              "client_type": 3
            },
            {
              "client_id": "873783554753-1fl2vtu5jskp6nkdgsj03q6rii9a3h85.apps.googleusercontent.com",
              "client_type": 2,
              "ios_info": {
                "bundle_id": "br.fabrifacil",
                "app_store_id": "1479095566"
              }
            }
          ]
        }
      }
    },
    {
      "client_info": {
        "mobilesdk_app_id": "1:873783554753:android:638abe0d56f6d215",
        "android_client_info": {
          "package_name": "br.vcg"
        }
      },
      "oauth_client": [
        {
          "client_id": "873783554753-unljkqboi9qg4aoip9n9aafj1osdorm6.apps.googleusercontent.com",
          "client_type": 3
        }
      ],
      "api_key": [
        {
          "current_key": "AIzaSyCd1EUJ7_09oSI7LOsDPv8ujD9skVwwwdQ"
        }
      ],
      "services": {
        "appinvite_service": {
          "other_platform_oauth_client": [
            {
              "client_id": "873783554753-5p73jfteip3k5o9moakul3cso519iao6.apps.googleusercontent.com",
              "client_type": 3
            },
            {
              "client_id": "873783554753-1fl2vtu5jskp6nkdgsj03q6rii9a3h85.apps.googleusercontent.com",
              "client_type": 2,
              "ios_info": {
                "bundle_id": "br.fabrifacil",
                "app_store_id": "1479095566"
              }
            }
          ]
        }
      }
    },
    {
      "client_info": {
        "mobilesdk_app_id": "1:873783554753:android:390b3cfe54726adeeeda40",
        "android_client_info": {
          "package_name": "br.viacao.mimo"
        }
      },
      "oauth_client": [
        {
          "client_id": "873783554753-unljkqboi9qg4aoip9n9aafj1osdorm6.apps.googleusercontent.com",
          "client_type": 3
        }
      ],
      "api_key": [
        {
          "current_key": "AIzaSyCd1EUJ7_09oSI7LOsDPv8ujD9skVwwwdQ"
        }
      ],
      "services": {
        "appinvite_service": {
          "other_platform_oauth_client": [
            {
              "client_id": "873783554753-5p73jfteip3k5o9moakul3cso519iao6.apps.googleusercontent.com",
              "client_type": 3
            },
            {
              "client_id": "873783554753-1fl2vtu5jskp6nkdgsj03q6rii9a3h85.apps.googleusercontent.com",
              "client_type": 2,
              "ios_info": {
                "bundle_id": "br.fabrifacil",
                "app_store_id": "1479095566"
              }
            }
          ]
        }
      }
    },
    {
      "client_info": {
        "mobilesdk_app_id": "1:873783554753:android:629029c602753416",
        "android_client_info": {
          "package_name": "br.viacao.saogabriel"
        }
      },
      "oauth_client": [
        {
          "client_id": "873783554753-unljkqboi9qg4aoip9n9aafj1osdorm6.apps.googleusercontent.com",
          "client_type": 3
        }
      ],
      "api_key": [
        {
          "current_key": "AIzaSyCd1EUJ7_09oSI7LOsDPv8ujD9skVwwwdQ"
        }
      ],
      "services": {
        "appinvite_service": {
          "other_platform_oauth_client": [
            {
              "client_id": "873783554753-5p73jfteip3k5o9moakul3cso519iao6.apps.googleusercontent.com",
              "client_type": 3
            },
            {
              "client_id": "873783554753-1fl2vtu5jskp6nkdgsj03q6rii9a3h85.apps.googleusercontent.com",
              "client_type": 2,
              "ios_info": {
                "bundle_id": "br.fabrifacil",
                "app_store_id": "1479095566"
              }
            }
          ]
        }
      }
    },
    {
      "client_info": {
        "mobilesdk_app_id": "1:873783554753:android:5c46bb5fd93dc5fe",
        "android_client_info": {
          "package_name": "br.vinsa"
        }
      },
      "oauth_client": [
        {
          "client_id": "873783554753-unljkqboi9qg4aoip9n9aafj1osdorm6.apps.googleusercontent.com",
          "client_type": 3
        }
      ],
      "api_key": [
        {
          "current_key": "AIzaSyCd1EUJ7_09oSI7LOsDPv8ujD9skVwwwdQ"
        }
      ],
      "services": {
        "appinvite_service": {
          "other_platform_oauth_client": [
            {
              "client_id": "873783554753-5p73jfteip3k5o9moakul3cso519iao6.apps.googleusercontent.com",
              "client_type": 3
            },
            {
              "client_id": "873783554753-1fl2vtu5jskp6nkdgsj03q6rii9a3h85.apps.googleusercontent.com",
              "client_type": 2,
              "ios_info": {
                "bundle_id": "br.fabrifacil",
                "app_store_id": "1479095566"
              }
            }
          ]
        }
      }
    },
    {
      "client_info": {
        "mobilesdk_app_id": "1:873783554753:android:be56fa01452cf107eeda40",
        "android_client_info": {
          "package_name": "br.votuporanga.itamarati"
        }
      },
      "oauth_client": [
        {
          "client_id": "873783554753-unljkqboi9qg4aoip9n9aafj1osdorm6.apps.googleusercontent.com",
          "client_type": 3
        }
      ],
      "api_key": [
        {
          "current_key": "AIzaSyCd1EUJ7_09oSI7LOsDPv8ujD9skVwwwdQ"
        }
      ],
      "services": {
        "appinvite_service": {
          "other_platform_oauth_client": [
            {
              "client_id": "873783554753-5p73jfteip3k5o9moakul3cso519iao6.apps.googleusercontent.com",
              "client_type": 3
            },
            {
              "client_id": "873783554753-1fl2vtu5jskp6nkdgsj03q6rii9a3h85.apps.googleusercontent.com",
              "client_type": 2,
              "ios_info": {
                "bundle_id": "br.fabrifacil",
                "app_store_id": "1479095566"
              }
            }
          ]
        }
      }
    },
    {
      "client_info": {
        "mobilesdk_app_id": "1:873783554753:android:54730e5b77c3accfeeda40",
        "android_client_info": {
          "package_name": "com.apucarana.voudeonibus"
        }
      },
      "oauth_client": [
        {
          "client_id": "873783554753-unljkqboi9qg4aoip9n9aafj1osdorm6.apps.googleusercontent.com",
          "client_type": 3
        }
      ],
      "api_key": [
        {
          "current_key": "AIzaSyCd1EUJ7_09oSI7LOsDPv8ujD9skVwwwdQ"
        }
      ],
      "services": {
        "appinvite_service": {
          "other_platform_oauth_client": [
            {
              "client_id": "873783554753-5p73jfteip3k5o9moakul3cso519iao6.apps.googleusercontent.com",
              "client_type": 3
            },
            {
              "client_id": "873783554753-1fl2vtu5jskp6nkdgsj03q6rii9a3h85.apps.googleusercontent.com",
              "client_type": 2,
              "ios_info": {
                "bundle_id": "br.fabrifacil",
                "app_store_id": "1479095566"
              }
            }
          ]
        }
      }
    },
    {
      "client_info": {
        "mobilesdk_app_id": "1:873783554753:android:b007056b83ffa791",
        "android_client_info": {
          "package_name": "com.maringa.voudeonibus"
        }
      },
      "oauth_client": [
        {
          "client_id": "873783554753-unljkqboi9qg4aoip9n9aafj1osdorm6.apps.googleusercontent.com",
          "client_type": 3
        }
      ],
      "api_key": [
        {
          "current_key": "AIzaSyCd1EUJ7_09oSI7LOsDPv8ujD9skVwwwdQ"
        }
      ],
      "services": {
        "appinvite_service": {
          "other_platform_oauth_client": [
            {
              "client_id": "873783554753-5p73jfteip3k5o9moakul3cso519iao6.apps.googleusercontent.com",
              "client_type": 3
            },
            {
              "client_id": "873783554753-1fl2vtu5jskp6nkdgsj03q6rii9a3h85.apps.googleusercontent.com",
              "client_type": 2,
              "ios_info": {
                "bundle_id": "br.fabrifacil",
                "app_store_id": "1479095566"
              }
            }
          ]
        }
      }
    },
    {
      "client_info": {
        "mobilesdk_app_id": "1:873783554753:android:aa2ae9ec5eca85d8",
        "android_client_info": {
          "package_name": "solucoes.zeno.sinetram"
        }
      },
      "oauth_client": [
        {
          "client_id": "873783554753-unljkqboi9qg4aoip9n9aafj1osdorm6.apps.googleusercontent.com",
          "client_type": 3
        }
      ],
      "api_key": [
        {
          "current_key": "AIzaSyCd1EUJ7_09oSI7LOsDPv8ujD9skVwwwdQ"
        }
      ],
      "services": {
        "appinvite_service": {
          "other_platform_oauth_client": [
            {
              "client_id": "873783554753-5p73jfteip3k5o9moakul3cso519iao6.apps.googleusercontent.com",
              "client_type": 3
            },
            {
              "client_id": "873783554753-1fl2vtu5jskp6nkdgsj03q6rii9a3h85.apps.googleusercontent.com",
              "client_type": 2,
              "ios_info": {
                "bundle_id": "br.fabrifacil",
                "app_store_id": "1479095566"
              }
            }
          ]
        }
      }
    }
  ],
  "configuration_version": "1"
}