<?xml version="1.0" encoding="utf-8"?>
<!-- Generator: Adobe Illustrator 25.3.1, SVG Export Plug-In . SVG Version: 6.00 Build 0)  -->
<svg version="1.1" id="Camada_1" xmlns="http://www.w3.org/2000/svg" xmlns:xlink="http://www.w3.org/1999/xlink" x="0px" y="0px"
	 viewBox="0 0 150 150" style="enable-background:new 0 0 150 150;" xml:space="preserve">
<style type="text/css">
	.st0{fill:none;}
	.st1{fill:#FFFFFF;}
</style>
<g>
	<rect class="st0" width="150" height="150"/>
</g>
<g>
	<path class="st1" d="M128.1,25c-16.3,4.4-35.4,6.2-53.1,6.2S38.2,29.4,21.9,25l-3.1,12.5c11.6,3.1,25,5.2,37.5,6.2v75h12.5V81.2
		h12.5v37.5h12.5v-75c12.5-1.1,25.9-3.1,37.5-6.2L128.1,25z M75,25c6.9,0,12.5-5.6,12.5-12.5S81.9,0,75,0S62.5,5.6,62.5,12.5
		S68.1,25,75,25z M43.8,150h12.5v-12.5H43.8V150z M68.8,150h12.5v-12.5H68.8V150z M93.8,150h12.5v-12.5H93.8V150z"/>
</g>
</svg>
