<?xml version="1.0" encoding="utf-8"?>
<!-- Generator: Adobe Illustrator 25.3.1, SVG Export Plug-In . SVG Version: 6.00 Build 0)  -->
<svg version="1.1" id="Camada_1" xmlns="http://www.w3.org/2000/svg" xmlns:xlink="http://www.w3.org/1999/xlink" x="0px" y="0px"
	 viewBox="0 0 150 150" style="enable-background:new 0 0 150 150;" xml:space="preserve">
<style type="text/css">
	.st0{fill:#FFFFFF;}
</style>
<path class="st0" d="M81.9,97.5c-0.1-0.5-0.4-0.9-0.7-1.3l-0.9-1.1c-2.9-2.9-7.7-3-10.6,0c0,0,0,0,0,0c-0.4,0.3-0.7,0.7-0.9,1.1
	c-0.3,0.4-0.5,0.8-0.7,1.3c-0.2,0.5-0.4,0.9-0.5,1.4c0,0.5,0,1,0,1.4c0,1,0.2,2,0.6,2.9c1.6,3.8,5.9,5.6,9.8,4.1
	c0.9-0.4,1.7-1,2.5-1.7c0.7-0.7,1.2-1.5,1.6-2.4c0.4-0.9,0.6-1.9,0.6-2.9c0-0.5,0-1,0-1.4C82.5,98.4,82.2,98,81.9,97.5z M75,40.2
	c-4.1,0-7.5,3.4-7.5,7.5l0,0v22.5c0,4.1,3.4,7.5,7.5,7.5s7.5-3.4,7.5-7.5V47.7C82.5,43.6,79.1,40.2,75,40.2C75,40.2,75,40.2,75,40.2
	z M132.2,12.4c-1.8-1.4-4.1-2-6.3-1.5c-16.2,3.4-33.1-0.1-46.7-9.5c-2.6-1.8-6-1.8-8.6,0c-13.6,9.5-30.5,12.9-46.7,9.5
	c-2.2-0.5-4.5,0.1-6.3,1.5C16,13.8,15,15.9,15,18.2v55.9c0,21.8,10.5,42.3,28.3,55l27.4,19.5c2.6,1.9,6.1,1.9,8.7,0l27.4-19.5
	c17.8-12.7,28.3-33.2,28.3-55V18.2C135,15.9,134,13.8,132.2,12.4z M120,74.1c0,17-8.2,32.9-22,42.8l-23,16.4l-23-16.4
	C38.2,107,30,91.1,30,74.1V26.8c15.7,1.3,31.5-2.3,45-10.4c13.5,8.1,29.3,11.8,45,10.4V74.1z"/>
</svg>
