<?xml version="1.0" encoding="utf-8"?>
<!-- Generator: Adobe Illustrator 25.3.1, SVG Export Plug-In . SVG Version: 6.00 Build 0)  -->
<svg version="1.1" id="Camada_1" xmlns="http://www.w3.org/2000/svg" xmlns:xlink="http://www.w3.org/1999/xlink" x="0px" y="0px"
	 viewBox="0 0 150 150" style="enable-background:new 0 0 150 150;" xml:space="preserve">
<style type="text/css">
	.st0{fill:#FFFFFF;}
</style>
<path class="st0" d="M150,43.7c0-0.5,0-1,0-1.4l0,0l0,0L135,4.7c-1.2-3-4.2-5-7.5-4.7h-105c-3.1,0-5.8,1.9-7,4.7l-15,37.5l0,0l0,0
	c0,0.5,0,1,0,1.4C0.3,44.1,0.1,44.5,0,45l0,0l0,0c0.2,10.5,5.9,20.2,15,25.5v72c0,4.1,3.4,7.5,7.5,7.5h105c4.1,0,7.5-3.4,7.5-7.5
	V70.8c9.2-5.3,14.9-15.1,15-25.8l0,0l0,0C150,44.6,150,44.1,150,43.7z M82.5,135h-15v-30h15V135z M120,135H97.5V97.5
	c0-4.1-3.4-7.5-7.5-7.5H60c-4.1,0-7.5,3.4-7.5,7.5V135H30V75c8.6,0,16.8-3.8,22.5-10.3c11,12.4,29.9,13.6,42.3,2.7
	c0.9-0.8,1.8-1.7,2.7-2.7C103.1,71.2,111.3,75,120,75V135z M120,60c-8.3,0-15-6.7-15-15c0-4.1-3.4-7.5-7.5-7.5
	c-4.1,0-7.5,3.4-7.5,7.5c0,8.3-6.7,15-15,15s-15-6.7-15-15c0-4.1-3.4-7.5-7.5-7.5S45,40.9,45,45c0.3,8.3-6.2,15.2-14.4,15.6
	S15.3,54.4,15,46.1L27.6,15h94.8L135,46.1C134.4,54,127.8,60,120,60z"/>
</svg>
