<?xml version="1.0" encoding="utf-8"?>
<!-- Generator: Adobe Illustrator 25.3.1, SVG Export Plug-In . SVG Version: 6.00 Build 0)  -->
<svg version="1.1" id="Camada_1" xmlns="http://www.w3.org/2000/svg" xmlns:xlink="http://www.w3.org/1999/xlink" x="0px" y="0px"
	 viewBox="0 0 150 150" style="enable-background:new 0 0 150 150;" xml:space="preserve">
<style type="text/css">
	.st0{fill:#FFFFFF;}
</style>
<path class="st0" d="M136.4,61.4c-5.4-1-10.9-1.5-16.4-1.4c-3.2,0-6.2,0-9.3,0.6c-3.8-5.1-8.7-9.3-14.3-12.4
	c4.8-5.3,7.5-12.1,7.5-19.3c0-16-13-28.9-29-28.9C58.9,0,46,13,46,28.9c0,7.1,2.7,14,7.5,19.3c-5.6,3.1-10.5,7.3-14.3,12.3
	C36.2,60,33.1,60,30,60c-5.5,0-11,0.5-16.4,1.6c-3.6,0.7-6.2,3.8-6.2,7.5v61.9c0,2.2,1,4.3,2.7,5.8c1.7,1.4,4,2,6.2,1.7
	c4.5-1,9.1-1.5,13.7-1.7c14.5,0,28.7,4.2,40.9,12.2l0,0l0,0l1,0.4l0,0c1,0.4,2.1,0.7,3.2,0.7c0.7,0,1.4-0.1,2.1-0.4h0.5l1-0.4l0,0
	l0,0c12.3-8.2,26.7-12.6,41.4-12.5c4.6,0,9.2,0.5,13.7,1.4c2.2,0.4,4.4-0.2,6.2-1.7c1.7-1.4,2.7-3.5,2.7-5.8V68.8
	C142.5,65.2,139.9,62.1,136.4,61.4z M75,15c7.7,0.6,13.5,7.3,12.9,14.9c-0.5,6.9-6,12.4-12.9,12.9l0,0c-7.7-0.6-13.5-7.3-12.9-14.9
	C62.6,21,68.1,15.5,75,15z M67.5,130c-11.8-5.4-24.6-8.2-37.5-8.3c-2.5,0-5,0-7.5,0.4V75c6.3-0.7,12.6-0.6,18.9,0.4h0.8
	c8.9,1.6,17.5,4.9,25.3,9.6V130z M75,72c-3.3-1.9-6.8-3.6-10.4-5.1h-0.5c-2.5-1-5-2-7.5-2.7c5.2-4.1,11.6-6.4,18.3-6.5l0,0
	c6.6,0,13.1,2.3,18.3,6.4C86.9,66,80.8,68.7,75,72z M127.5,122.1c-15.4-1.5-30.9,1-45,7.5v-45c7.8-4.6,16.4-7.7,25.3-9.2h1.5
	c6-0.9,12.2-1.1,18.2-0.5V122.1z"/>
</svg>
