{
    "Transit": "Multimodal",
    "Bus Only": "Somente ônibus",
    "Rail Only": "Somente trens",
    "Bicycle Only": "Bicicleta apenas",
    "Bicycle &amp; Transit": "Bicicleta &amp; Multimodal",
    "Walk Only": "Somente a pé",
    "Drive Only": "Apenas motorizados",
    "Park and Ride": "Estacione e siga",
    "Kiss and Ride": "Parada rápida e siga",
    "Bike and Ride": "Bicicleta e dirija",
    "Rented Bicycle": "Bicicletas compartilhadas",
    "Transit & Rented Bicycle": "Multimodal & bicicletas compartilhadas",
    "Recenter Map Here": "Mapa mais recente aqui",
    "Zoom In": "Zoom In",
    "Zoom Out": "Zoom Out",
    "Minimize all": "Minimizar tudo",
    "Unminimize all": "Maximizar tudo",
    "Stop Viewer": "Visualizador de pontos de parada",
    "Plan Trip": "Planejar rota",
    "From Stop": "Aqui como origem",
    "To Stop": "Aqui como destino",
    "Routes Serving Stop": "Linhas que atendem este ponto",
    "Legend : travel time in minutes": "Legenda : tempo de viagem em minutos",
    "Analyst": "Analista",
    "Refresh": "Atualizar",
    "Set as Analysis Location": "Definir como localização de análise",
    "Bike Share Planner": "Planejador para bicicletas compartilhadas",
    "Trip Options": "Opções de rota",
    "PICK UP BIKE": "RETIRAR BICICLETA",
    "ALTERNATE PICKUP": "RETIRAR ALTERNATIVA",
    "DROP OFF BIKE": "DEVOLVER BICICLETA",
    "ALTERNATE DROP OFF": "DEVOLVER ALTERNATIVO",
    "BIKE STATION": "ESTAÇÃO DE BICICLETAS",
    "Station:": "Estação:",
    "<strong>%d</strong> bike available": "<strong>%d</strong> bicicleta disponível",
    "<strong>%d</strong> bike available_plural": "<strong>%d</strong> bicicletas disponíveis",
    "<strong>%d</strong> dock available": "<strong>%d</strong> vaga disponível",
    "<strong>%d</strong> dock available_plural": "<strong>%d</strong> vagas disponíveis",
    "Recommended Pick Up:": "Retirar bicicleta no local recomendado:",
    "Recommended Drop Off:": "Devolver bicicleta no local recomendado:",
    "Multimodal Trip Planner": "Planejador de rotas multi-modal",
    "Itineraries": "Itinerários",
    "%d Itinerary Returned": "%d Itinerário localizado",
    "%d Itinerary Returned_plural": "%d Itinerários localizados",
    "Link to search": "Link para pesquisa",
    "First": "Primeiro",
    "Previous": "Anterior",
    "Next": "Próximo",
    "Last": "Último",
    "CONTINUES AS": "CONTINUAR COMO",
    "%d min late": "%d min atrasado",
    "%d min late_plural": "%d mins atrasados",
    "%d min early": "%d min adiantado",
    "%d min early_plural": "%d mins adiantados",
    "on time": "no horário",
    "Total walk distance for this trip exceeds specified maximum": "A distância total a pé para esta rota excede o máximo especificado",
	"End": "Destino",
    "Trip Summary": "Resumo da rota",
    "Travel": "Viagem",
    "Time": "Tempo",
    "Total Walk": "Total a pé",
    "Total Bike": "Total de bicicleta",
    "Transfers": "Transferências",
    "Fare": "Tarifa",
    "Valid": "Válido",
    "Link to Itinerary": "Link para o itinerário",
    "Print": "Imprimir",
    "Your Trip": "Sua rota",
    "Email": "Email",
    "every %d min": "a cada %d min",
    "every %d min_plural": "a cada %d mins",
    "<b>Board</b> at ": "<b>Embarque</b> às ",
    "Stop": "Ponto de parada",
    "Time in transit": "Tempo de viagem",
    "Trip Viewer": "Visualizador de rotas",
    "late as": "tão tarde como",
    "Stay on board": "Mantenha-se no veículo",
    "Alight": "Acesso",
    "at": "às",
    "%(currency)s %(price)s": "%(currency)s %(price)s",
    "Start: %(location)s at %(time_date)s": "Partida: %(location)s às %(time_date)s",
    "Board": "Embarcar",
    "(%(agency_id)s Stop ID #%(stop_id)s),": "(%(agency_id)s Código da parada #%(stop_id)s),",
    "End: %(location)s at %(time_date)s": "Fim: %(location)s às %(time_date)s",
    "\nView itinerary online:\n%(itinerary_link)s\n": [
        "",
        "Ver itinerário online:",
        "%(itinerary_link)s",
        ""
    ],
    "We're sorry. The trip planner is temporarily unavailable. Please try again later.": "Desculpe! Nosso roteirizador está temporariamente indisponível. Tente mais tarde!",
    "Trip is not possible.  You might be trying to plan a trip outside the map data boundary.": "Ops! Você tentou realizar um planejamento fora dos limites do mapa. Tente novamente!",
    "No trip found. There may be no transit service within the maximum specified distance or at the specified time, or your start or end point might not be safely accessible.": "Ops! Você tentou planejar um deslocamento em um local onde não é possível. Tente novamente!",
    "No transit times available. The date may be past or too far in the future or there may not be transit service for your trip at the time you chose.": "Não há informações disponíveis de trânsito. Não há informação sobre transporte público disponíveis para esta data.",
    "The trip planner is taking way too long to process your request. Please try again later.": "Nosso roteirizador está demorando demais para processar seu pedido. Tente mais tarde",
    "The request has errors that the server is not willing or able to process.": "Seu pedido tem erros e nosso servidor não está conseguindo processá-lo.",
    "Origin is unknown. Can you be a bit more descriptive?": "Origem desconhecida. Poderia ser mais específico?",
    "Destination is unknown.  Can you be a bit more descriptive?": "Destino desconhecido.  Poderia ser mais específico?",
    "Both origin and destination are unknown. Can you be a bit more descriptive?": "Origem e destino desconhecidos. Poderia ser mais específico?",
    "Both origin and destination are not wheelchair accessible": "Origem e destino não acessíveis para cadeira de rodas",
    "Origin is within a trivial distance of the destination.": "A origem está muito próxima do destino",
    "The trip planner is unsure of the location you want to start from. Please select from the following options, or be more specific.": "Nosso roteirizador está inseguro em relação à localização da sua origem. Selecione uma das seguintes opções ou seja mais específico.",
    "The trip planner is unsure of the destination you want to go to. Please select from the following options, or be more specific.": "Nosso roteirizador está inseguro em relação à localização do seu destino. Selecione uma das seguintes opções ou seja mais específico.",
    "Both origin and destination are ambiguous. Please select from the following options, or be more specific.": "Origem e destino ambíguos.  Selecione uma das seguintes opções ou seja mais específico.",
    "All of triangleSafetyFactor, triangleSlopeFactor, and triangleTimeFactor must be set if any are": "Todo o triangleSafetyFactor, triangleSlopeFactor, e triangleTimeFactor deve ser definido se algum for",
    "The values of triangleSafetyFactor, triangleSlopeFactor, and triangleTimeFactor must sum to 1": "Os valores de triangleSafetyFactor, triangleSlopeFactor, e triangleTimeFactor devem somar com valor 1",
    "If triangleSafetyFactor, triangleSlopeFactor, and triangleTimeFactor are provided, OptimizeType must be TRIANGLE": "Se o triangleSafetyFactor, triangleSlopeFactor, e triangleTimeFactor forem fornecidos, OptimizeType deve ser um TRIANGLE",
    "If OptimizeType is TRIANGLE, triangleSafetyFactor, triangleSlopeFactor, and triangleTimeFactor must be set": "Se OptimizeType é TRIANGLE, triangleSafetyFactor, triangleSlopeFactor, e triangleTimeFactor devem ser definidos",
    "Set as Start Location": "Definir como origem",
    "Set as End Location": "Definir como destino",
    "Destination": "Destino",
    "Error %(error_id)d": "Erro %(error_id)d",
    "No Trip Found": "Nenhuma rota encontrada",
    "Your %(bike_share_name)s route": "Sua rota %(bike_share_name)s",
    "Your bike route": "Sua rota",
    "Walk to the %(bike_share_name)s dock.": "Ande para a vaga %(bike_share_name)s",
    "Walk from the %(bike_share_name)s dock to your destination.": "Ande da vaga %(bike_share_name)s para seu destino.",
    "Your walk route": "Sua rota a pé",
    "north": "norte",
    "northeast": "nordeste",
    "east": "leste",
    "southeast": "sudeste",
    "south": "sul",
    "southwest": "sudoeste",
    "west": "oeste",
    "northwest": "nordeste",
    "hard left": "fechada a esquerda",
    "left": "esquerda",
    "slight left": "leve a esquerda",
    "continue": "continua",
    "slight right": "leve a direita",
    "right": "direita",
    "hard right": "fechada a direita",
    "elevator": "elevador",
    "U-turn left": "cotovelo à esquerda",
    "U-turn right": "cotovelo à direita",
    "Walk": "A pé",
    "Cycle": "Bicicleta",
    "Car": "Carro",
    "Bus": "Ônibus",
    "Subway": "Metrô",
    "Train": "Trem",
    "Ferry": "Ferry",
    "Light Rail": "VLT",
    "Cable Car": "Bonde",
    "Funicular": "Funicular",
    "Aerial Tram": "Teleférico",
    "Bicycle rental station": "Estação de aluguel de bicicletas",
    "Bicycle rental": "Aluguel de bicicletas",
    "Take roundabout <b>counterclockwise</b> to <b>%(ordinal_exit_number)s</b> exit on <b>%(street_name)s</b>": "Entre na rótula <b>no sentido antihorário</b> na <b> %(ordinal_exit_number)s</b> saída em direção a <b>%(street_name)s</b>",
    "Take roundabout counterclockwise to %(ordinal_exit_number)s exit on %(street_name)s": "Entre na rótula no sentido antihorário, na %(ordinal_exit_number)s saída em direção a %(street_name)s",
    "Take roundabout <b>clockwise</b> to <b>%(ordinal_exit_number)s</b> exit on <b>%(street_name)s</b>": "Entre na rótula <b>no sentido horário</b> na <b> %(ordinal_exit_number)s</b> saída em direção a <b>%(street_name)s</b>",
    "Take roundabout clockwise to %(ordinal_exit_number)s exit on %(street_name)s": "Entre na rótula no sentido horário, na %(ordinal_exit_number)s saída em direção a %(street_name)s",
    "Start on": "Origem em",
    " heading ": " em direção a ",
    "to continue on": "siga em",
    "on to": "para",
    "first": "primeiro",
    "second": "segundo",
    "third": "terceiro",
    "fourth": "quarto",
    "fifth": "quinto",
    "sixth": "sexto",
    "seventh": "sétimo",
    "eight": "oitavo",
    "ninth": "nono",
    "tenth": "décimo",
    "%d hr": "%d h",
    "%d hr_plural": "%d hs",
    "%d min": "%d min",
    "%d min_plural": "%d mins",
    "%d sec": "%d seg",
    "%d sec_plural": "%d segs",
    "OK": "OK",
    "Minimize": "Minimizar",
    "Bring to front": "Trazer para a frente",
    "Send to back": "Enviar para trás",
    "Route:": "Rota:",
    "Variant:": "Variante:",
    "Stop Finder": "Pesquisar ponto de parada",
    "Agency": "Operadora",
    "By ID": "Por código",
    "By Name": "Por nome",
    "Search": "Buscar",
    "No Stops Found": "Nenhum ponto de parada encontrado",
    "Date": "Data",
    "Find Stops": "Procurar pontos de parada",
    "(No Stop Selected)": "(Nenhum ponto de parada selecionado)",
    "Block": "Bloquear",
    "Recenter": "Mais recente",
    "Viewer": "Visualizador",
    "Quick": "Rápido",
    "Flat": "Plano",
    "Bike Friendly": "Amigável para bicicletas",
    "B": "B",
    "F": "F",
    "Q": "Q",
    "All Routes": "Todas as rotas",
    "Save": "Salvar",
    "Close": "Fechar",
    "Travel Options": "Opções de viagem",
    "Geocoder": "Geocoder",
    "Arrive": "Chegada",
    "Now": "Agora",
    "Wheelchair accesible trip:": "Rota acessível a cadeiras de roda:",
    "Travel by": "Viagem por",
    "Presets": "Presets",
    "Maximum walk": "Máximo a pé",
    "Maximum bike": "Máximo de bicicleta",
    "Preferred Routes": "Rotas favoritas",
    "Edit": "Editar",
    "None": "Nenhum",
    "Weight": "Peso",
    "Banned routes": "Rotas ignoradas",
    "Use": "Utilizar",
    "My Own Bike": "Minha própria bicicleta",
    "A Shared Bike": "Bicicleta compartilhada",
    "Plan Your Trip": "Planeje sua rota",
    " to _direction": " para ",
    " to _bus_direction": " para ",
    "Start_template": "Origem",
    "Depart_itinerary": "Partida",
    "depart_itinerary": "partida",
    "Start_popup": "Origem",
    "Depart_tripoptions": "Partida"
}
