<?xml version="1.0" encoding="utf-8"?>
<!-- Generator: Adobe Illustrator 25.3.1, SVG Export Plug-In . SVG Version: 6.00 Build 0)  -->
<svg version="1.1" id="Camada_1" xmlns="http://www.w3.org/2000/svg" xmlns:xlink="http://www.w3.org/1999/xlink" x="0px" y="0px"
	 viewBox="0 0 150 150" style="enable-background:new 0 0 150 150;" xml:space="preserve">
<style type="text/css">
	.st0{fill:#FFFFFF;}
</style>
<path class="st0" d="M127.5,45H120V22.5C120,10.1,109.9,0,97.5,0h-75C10.1,0,0,10.1,0,22.5v90c0,3,1.8,5.7,4.6,6.9
	c0.9,0.4,1.9,0.6,2.8,0.6c2,0,3.9-0.8,5.3-2.2l21.1-21.1H45v10.8c0,12.4,10.1,22.5,22.5,22.5h51.9l17.8,17.8
	c1.4,1.4,3.3,2.2,5.3,2.2c1,0,2-0.2,2.8-0.6c2.8-1.2,4.6-3.9,4.6-6.9v-75C150,55.1,139.9,45,127.5,45z M45,67.5v14.2H30.8
	c-2,0-3.9,0.8-5.3,2.2L15,94.4V22.5c0-4.1,3.4-7.5,7.5-7.5h75c4.1,0,7.5,3.4,7.5,7.5V45H67.5C55.1,45,45,55.1,45,67.5z M135,124.4
	l-7.5-7.5c-1.4-1.4-3.3-2.2-5.3-2.2H67.5c-4.1,0-7.5-3.4-7.5-7.5V67.5c0-4.1,3.4-7.5,7.5-7.5h60c4.1,0,7.5,3.4,7.5,7.5V124.4z"/>
</svg>
