<?xml version="1.0" encoding="utf-8"?>
<!-- Generator: Adobe Illustrator 25.3.1, SVG Export Plug-In . SVG Version: 6.00 Build 0)  -->
<svg version="1.1" id="Camada_1" xmlns="http://www.w3.org/2000/svg" xmlns:xlink="http://www.w3.org/1999/xlink" x="0px" y="0px"
	 viewBox="0 0 150 150" style="enable-background:new 0 0 150 150;" xml:space="preserve">
<style type="text/css">
	.st0{fill:#FFFFFF;}
</style>
<path class="st0" d="M16.7,41.7c0,4.6,3.7,8.3,8.3,8.3s8.3-3.7,8.3-8.3v-8.3h8.3c4.6,0,8.3-3.7,8.3-8.3s-3.7-8.3-8.3-8.3h-8.3V8.3
	C33.3,3.7,29.6,0,25,0s-8.3,3.7-8.3,8.3v8.3H8.3C3.7,16.7,0,20.4,0,25s3.7,8.3,8.3,8.3h8.3V41.7z M125,16.7H75
	c-4.6,0-8.3,3.7-8.3,8.3s3.7,8.3,8.3,8.3h50c4.6,0,8.3,3.7,8.3,8.3v81l-13.1-12.1c-1.5-1.4-3.6-2.2-5.7-2.3H41.7
	c-4.6,0-8.3-3.7-8.3-8.3V75c0-4.6-3.7-8.3-8.3-8.3s-8.3,3.7-8.3,8.3v25c0,13.8,11.2,25,25,25h69.7l25,22.7c1.5,1.4,3.3,2.2,5.3,2.2
	c1.1,0,2.3-0.2,3.3-0.7c3-1.3,5-4.3,5-7.7v-100C150,27.9,138.8,16.7,125,16.7z"/>
</svg>
