<?xml version="1.0" encoding="utf-8"?>
<!-- Generator: Adobe Illustrator 25.3.1, SVG Export Plug-In . SVG Version: 6.00 Build 0)  -->
<svg version="1.1" id="Camada_1" xmlns="http://www.w3.org/2000/svg" xmlns:xlink="http://www.w3.org/1999/xlink" x="0px" y="0px"
	 viewBox="0 0 150 150" style="enable-background:new 0 0 150 150;" xml:space="preserve">
<image style="overflow:visible;" width="96" height="96" xlink:href="data:image/png;base64,iVBORw0KGgoAAAANSUhEUgAAAGAAAABgCAQAAABIkb+zAAABwklEQVR42u3Xr2sCYRzH8TOI2WCV
Kxb9BxY1rAkyFg0X1gTBbhQswoEW47G8pGFBg3FgVsR06OqSaaLwXhmyDX/geeqd+3xsCs/zfcnz
ved7hnGmkMZmzIIFY2zSRphClBZrfmZNi2h4yu+xLb2QEGiyK80wlJ/+c3h+H6Tg9wI2+2IHHzDa
CxgFH7DYC1gIoCN0800c9sdo6C+yGxglQj/MBWacxsTlmSdSV/oLYtxR4YV3TG8LWJsD8MErdR5I
ETl72RFSPGLzxudmf8vbUs6WRlwxoYtNiXuSvhWd5J4SNl0mrLbs6nhb1uVQlrgM6eHQoIpFnixZ
zO9PYrNSYvNdlix5LKo0cOgxxGV5cB/XWwcEKeYpHRCEWP50wPXinKMDLhnXy5OhSPvAcHyJjGhT
POGJR5wCNTrMLlr2jA41CsT9vGLi5KjQps/8LEXP6dOmQs7Xsnde8xkKlKnjMGB64EVy68slUwY4
1ClTIEPs2sPbkQne9CmAAAIIIIAAAggggAACCCCAAAIIIIAfgGN/F0AAAQQQQAABBBBAAAEEEEAA
AQQQIJwARVEURVGU/5RTh7erD3cCCCCAAAIYhmF8ARK+bu35bqtAAAAAAElFTkSuQmCC" transform="matrix(1.5625 0 0 1.5625 0 0)">
</image>
</svg>
