<?xml version="1.0" encoding="utf-8"?>
<!-- Generator: Adobe Illustrator 25.3.1, SVG Export Plug-In . SVG Version: 6.00 Build 0)  -->
<svg version="1.1" id="Camada_1" xmlns="http://www.w3.org/2000/svg" xmlns:xlink="http://www.w3.org/1999/xlink" x="0px" y="0px"
	 viewBox="0 0 150 150" style="enable-background:new 0 0 150 150;" xml:space="preserve">
<style type="text/css">
	.st0{fill:#FFFFFF;}
</style>
<path class="st0" d="M134.96,116.68c9.28-15.2,4.47-35.04-10.73-44.32c-15.2-9.28-35.04-4.47-44.32,10.73s-4.47,35.04,10.73,44.32
	c5.06,3.09,10.87,4.72,16.8,4.72c5.92-0.03,11.73-1.66,16.8-4.72l12.9,12.97c2.92,2.94,7.66,2.96,10.6,0.04
	c0.01-0.01,0.03-0.03,0.04-0.04c2.94-2.92,2.96-7.66,0.04-10.6c-0.01-0.01-0.03-0.03-0.04-0.04L134.96,116.68z M119.97,112.41
	c-6.86,6.54-17.65,6.54-24.52,0c-6.74-6.78-6.74-17.73,0-24.52c6.76-6.77,17.72-6.78,24.49-0.02c0.01,0.01,0.02,0.02,0.02,0.02
	C126.71,94.67,126.71,105.62,119.97,112.41z M127.47,7.44H22.5C10.07,7.44,0,17.51,0,29.93v67.48c0,12.42,10.07,22.49,22.49,22.49
	h29.99c4.14,0,7.5-3.36,7.5-7.5s-3.36-7.5-7.5-7.5H22.5c-4.14,0-7.5-3.36-7.5-7.5V52.42h119.97v7.5c0,4.14,3.36,7.5,7.5,7.5
	s7.5-3.36,7.5-7.5V29.93C149.96,17.51,139.89,7.44,127.47,7.44z M134.96,37.43H15v-7.5c0-4.14,3.36-7.5,7.5-7.5h104.97
	c4.14,0,7.5,3.36,7.5,7.5V37.43z M59.99,67.42H37.49c-4.14,0-7.5,3.36-7.5,7.5s3.36,7.5,7.5,7.5h22.49c4.14,0,7.5-3.36,7.5-7.5
	S64.13,67.42,59.99,67.42z"/>
</svg>
