<?xml version="1.0" encoding="utf-8"?>
<!-- Generator: Adobe Illustrator 25.3.1, SVG Export Plug-In . SVG Version: 6.00 Build 0)  -->
<svg version="1.1" id="Camada_1" xmlns="http://www.w3.org/2000/svg" xmlns:xlink="http://www.w3.org/1999/xlink" x="0px" y="0px"
	 viewBox="0 0 150 150" style="enable-background:new 0 0 150 150;" xml:space="preserve">
<style type="text/css">
	.st0{fill:#FFFFFF;}
</style>
<path class="st0" d="M119.9,90.1c-9,0.1-17.4,4.1-23.1,11.1L58.7,83.6c1.8-5.5,1.8-11.4,0-16.9L96.9,49c10.6,12.7,29.4,14.5,42.2,4
	c12.7-10.6,14.5-29.4,4-42.2c-10.6-12.7-29.4-14.5-42.2-4c-7,5.8-11,14.4-10.9,23.4c0,1.8,0.2,3.6,0.5,5.3L51,53.7
	C39.2,42.1,20.2,42.3,8.6,54.2S-2.7,85,9.1,96.5c11.6,11.4,30.2,11.4,41.9,0l39.5,18.2c-0.3,1.8-0.5,3.5-0.5,5.3
	c0,16.5,13.4,30,30,30s30-13.4,30-30S136.5,90.1,119.9,90.1z M119.9,15.2c8.3,0,15,6.7,15,15s-6.7,15-15,15s-15-6.7-15-15
	S111.7,15.2,119.9,15.2z M30.1,90.1c-8.3,0-15-6.7-15-15s6.7-15,15-15s15,6.7,15,15S38.4,90.1,30.1,90.1z M119.9,135
	c-8.3,0-15-6.7-15-15s6.7-15,15-15s15,6.7,15,15S128.2,135,119.9,135z"/>
</svg>
